AFPProtonContainer
AFPProtonContainerAux.
AFPSiHitsClusterContainer
AFPSiHitsClusterContainerAux.
AFPToFTrackContainer
AFPToFTrackContainerAux.
AFPTrackContainer
AFPTrackContainerAux.
AFPVertexContainer
AFPVertexContainerAux.
AllCalo
BunchConfKey
BunchId
CaloCalFwdTopoTowers
CaloCalFwdTopoTowersAux.
CaloCalFwdTopoTowersAuxDyn.ENG_FRAC_EM
CaloCalFwdTopoTowersAuxDyn.LONGITUDINAL
CaloCalFwdTopoTowersAuxDyn.SIGNIFICANCE
CaloCalTopoClusters
CaloCalTopoClustersAux.
CaloCalTopoClustersAuxDyn.AVG_LAR_Q
CaloCalTopoClustersAuxDyn.AVG_TILE_Q
CaloCalTopoClustersAuxDyn.BADLARQ_FRAC
CaloCalTopoClustersAuxDyn.BadChannelList
CaloCalTopoClustersAuxDyn.CELL_SIGNIFICANCE
CaloCalTopoClustersAuxDyn.CENTER_LAMBDA
CaloCalTopoClustersAuxDyn.CENTER_MAG
CaloCalTopoClustersAuxDyn.CellLink
CaloCalTopoClustersAuxDyn.EM_PROBABILITY
CaloCalTopoClustersAuxDyn.ENG_BAD_CELLS
CaloCalTopoClustersAuxDyn.ENG_FRAC_MAX
CaloCalTopoClustersAuxDyn.ENG_POS
CaloCalTopoClustersAuxDyn.FIRST_ENG_DENS
CaloCalTopoClustersAuxDyn.ISOLATION
CaloCalTopoClustersAuxDyn.LATERAL
CaloCalTopoClustersAuxDyn.LONGITUDINAL
CaloCalTopoClustersAuxDyn.MASS
CaloCalTopoClustersAuxDyn.NCELL_SAMPLING
CaloCalTopoClustersAuxDyn.N_BAD_CELLS
CaloCalTopoClustersAuxDyn.PTD
CaloCalTopoClustersAuxDyn.SECOND_LAMBDA
CaloCalTopoClustersAuxDyn.SECOND_R
CaloCalTopoClustersAuxDyn.SECOND_TIME
CaloCalTopoClustersAuxDyn.SIGNIFICANCE
CaloCalTopoClusters_links
CombinedMuonTrackParticles
CombinedMuonTrackParticlesAux.
CombinedMuonTrackParticlesAuxDyn.TRTdEdx
CombinedMuonTrackParticlesAuxDyn.TRTdEdxUsedHits
CombinedMuonTrackParticlesAuxDyn.alignEffectChId
CombinedMuonTrackParticlesAuxDyn.alignEffectDeltaAngle
CombinedMuonTrackParticlesAuxDyn.alignEffectDeltaTrans
CombinedMuonTrackParticlesAuxDyn.alignEffectSigmaDeltaAngle
CombinedMuonTrackParticlesAuxDyn.alignEffectSigmaDeltaTrans
CombinedMuonTrackParticlesAuxDyn.deltaphi_0
CombinedMuonTrackParticlesAuxDyn.deltaphi_1
CombinedMuonTrackParticlesAuxDyn.deltatheta_0
CombinedMuonTrackParticlesAuxDyn.deltatheta_1
CombinedMuonTrackParticlesAuxDyn.eProbabilityNN
CombinedMuonTrackParticlesAuxDyn.parameterPX
CombinedMuonTrackParticlesAuxDyn.parameterPY
CombinedMuonTrackParticlesAuxDyn.parameterPZ
CombinedMuonTrackParticlesAuxDyn.parameterPosition
CombinedMuonTrackParticlesAuxDyn.parameterX
CombinedMuonTrackParticlesAuxDyn.parameterY
CombinedMuonTrackParticlesAuxDyn.parameterZ
CombinedMuonTrackParticlesAuxDyn.sigmadeltaphi_0
CombinedMuonTrackParticlesAuxDyn.sigmadeltaphi_1
CombinedMuonTrackParticlesAuxDyn.sigmadeltatheta_0
CombinedMuonTrackParticlesAuxDyn.sigmadeltatheta_1
CombinedMuonTrackParticlesAuxDyn.trackLink
CombinedMuonTrackParticlesAuxDyn.trackParameterCovarianceMatrices
CombinedMuonTrackParticlesAuxDyn.truthOrigin
CombinedMuonTrackParticlesAuxDyn.truthParticleLink
CombinedMuonTrackParticlesAuxDyn.truthType
CombinedMuonsLRTTrackParticles
CombinedMuonsLRTTrackParticlesAux.
CombinedStauTrackParticles
CombinedStauTrackParticlesAux.
ConditionsRun
DataHeader
DataHeaderForm
DiTauJets
DiTauJetsAux.
EMEO_CombinedMuonTrackParticles
EMEO_CombinedMuonTrackParticlesAux.
EMEO_ExtrapolatedMuonTrackParticles
EMEO_ExtrapolatedMuonTrackParticlesAux.
EMEO_MSOnlyExtrapolatedMuonTrackParticles
EMEO_MSOnlyExtrapolatedMuonTrackParticlesAux.
EMEO_MuonSpectrometerTrackParticles
EMEO_MuonSpectrometerTrackParticlesAux.
EMEO_MuonSpectrometerTrackParticlesAuxDyn.TRTdEdx
EMEO_MuonSpectrometerTrackParticlesAuxDyn.TRTdEdxUsedHits
EMEO_MuonSpectrometerTrackParticlesAuxDyn.eProbabilityNN
EMEO_MuonSpectrometerTrackParticlesAuxDyn.parameterPX
EMEO_MuonSpectrometerTrackParticlesAuxDyn.parameterPY
EMEO_MuonSpectrometerTrackParticlesAuxDyn.parameterPZ
EMEO_MuonSpectrometerTrackParticlesAuxDyn.parameterPosition
EMEO_MuonSpectrometerTrackParticlesAuxDyn.parameterX
EMEO_MuonSpectrometerTrackParticlesAuxDyn.parameterY
EMEO_MuonSpectrometerTrackParticlesAuxDyn.parameterZ
EMEO_MuonSpectrometerTrackParticlesAuxDyn.trackLink
EMEO_MuonSpectrometerTrackParticlesAuxDyn.trackParameterCovarianceMatrices
EMEO_MuonSpectrometerTrackParticlesAuxDyn.truthOrigin
EMEO_MuonSpectrometerTrackParticlesAuxDyn.truthParticleLink
EMEO_MuonSpectrometerTrackParticlesAuxDyn.truthType
EMEO_Muons
EMEO_MuonsAux.
ElectronCaloRings
ElectronCaloRingsAux.
ElectronRingSets
ElectronRingSetsAux.
Electrons
ElectronsAux.
ElectronsAuxDyn.LHLoose
ElectronsAuxDyn.LHMedium
ElectronsAuxDyn.LHTight
ElectronsAuxDyn.LHValue
ElectronsAuxDyn.Loose
ElectronsAuxDyn.Medium
ElectronsAuxDyn.Tight
ElectronsAuxDyn.ambiguityLink
ElectronsAuxDyn.ambiguityType
ElectronsAuxDyn.asy1
ElectronsAuxDyn.barys1
ElectronsAuxDyn.caloRingsLinks
ElectronsAuxDyn.chargedFELinks
ElectronsAuxDyn.core57cellsEnergyCorrection
ElectronsAuxDyn.deltaEta1PearDistortion
ElectronsAuxDyn.e1152
ElectronsAuxDyn.e132
ElectronsAuxDyn.e233
ElectronsAuxDyn.e235
ElectronsAuxDyn.e237
ElectronsAuxDyn.e255
ElectronsAuxDyn.e2ts1
ElectronsAuxDyn.e2tsts1
ElectronsAuxDyn.ecore
ElectronsAuxDyn.ehad1
ElectronsAuxDyn.emaxs1
ElectronsAuxDyn.emins1
ElectronsAuxDyn.ethad
ElectronsAuxDyn.ethad1
ElectronsAuxDyn.neutralFELinks
ElectronsAuxDyn.pos
ElectronsAuxDyn.pos7
ElectronsAuxDyn.poscs1
ElectronsAuxDyn.poscs2
ElectronsAuxDyn.ptcone20
ElectronsAuxDyn.ptcone30
ElectronsAuxDyn.ptvarcone20
ElectronsAuxDyn.ptvarcone30
ElectronsAuxDyn.r33over37allcalo
ElectronsAuxDyn.topoetcone20
ElectronsAuxDyn.topoetcone20ptCorrection
ElectronsAuxDyn.topoetcone30
ElectronsAuxDyn.topoetcone30ptCorrection
ElectronsAuxDyn.topoetcone40
ElectronsAuxDyn.topoetcone40ptCorrection
ElectronsAuxDyn.truthOrigin
ElectronsAuxDyn.truthParticleLink
ElectronsAuxDyn.truthType
ElectronsAuxDyn.widths1
ElectronsAuxDyn.widths2
EventFormatStreamAOD
EventInfo
EventInfoAux.
EventInfoAuxDyn.actualInteractionsPerCrossing
EventInfoAuxDyn.averageInteractionsPerCrossing
EventInfoAuxDyn.beamPosSigmaX
EventInfoAuxDyn.beamPosSigmaXY
EventInfoAuxDyn.beamPosSigmaY
EventInfoAuxDyn.beamPosSigmaZ
EventInfoAuxDyn.beamPosX
EventInfoAuxDyn.beamPosY
EventInfoAuxDyn.beamPosZ
EventInfoAuxDyn.beamStatus
EventInfoAuxDyn.beamTiltXZ
EventInfoAuxDyn.beamTiltYZ
EventInfoAuxDyn.mcChannelNumber
EventInfoAuxDyn.mcEventNumber
EventInfoAuxDyn.mcEventWeights
EventInfoAuxDyn.onlineBeamPosSigmaX
EventInfoAuxDyn.onlineBeamPosSigmaXY
EventInfoAuxDyn.onlineBeamPosSigmaY
EventInfoAuxDyn.onlineBeamPosSigmaZ
EventInfoAuxDyn.onlineBeamPosX
EventInfoAuxDyn.onlineBeamPosY
EventInfoAuxDyn.onlineBeamPosZ
EventInfoAuxDyn.onlineBeamStatus
EventInfoAuxDyn.onlineBeamTiltXZ
EventInfoAuxDyn.onlineBeamTiltYZ
EventInfoAuxDyn.pileUpMixtureIDHighBits
EventInfoAuxDyn.pileUpMixtureIDLowBits
EventInfoAuxDyn.streamTagDets
EventInfoAuxDyn.streamTagRobs
EventInfoAuxDyn.subEventIndex
EventInfoAuxDyn.subEventLink
EventInfoAuxDyn.subEventTime
EventInfoAuxDyn.subEventType
EventInfo_p4
EventNumber
EventTime
EventTimeNanoSec
EventWeight
ExtraPolatedMuonsLRTTrackParticles
ExtraPolatedMuonsLRTTrackParticlesAux.
ExtrapolatedMuonTrackParticles
ExtrapolatedMuonTrackParticlesAux.
ExtrapolatedMuonTrackParticlesAuxDyn.TRTdEdx
ExtrapolatedMuonTrackParticlesAuxDyn.TRTdEdxUsedHits
ExtrapolatedMuonTrackParticlesAuxDyn.alignEffectChId
ExtrapolatedMuonTrackParticlesAuxDyn.alignEffectDeltaAngle
ExtrapolatedMuonTrackParticlesAuxDyn.alignEffectDeltaTrans
ExtrapolatedMuonTrackParticlesAuxDyn.alignEffectSigmaDeltaAngle
ExtrapolatedMuonTrackParticlesAuxDyn.alignEffectSigmaDeltaTrans
ExtrapolatedMuonTrackParticlesAuxDyn.deltaphi_0
ExtrapolatedMuonTrackParticlesAuxDyn.deltaphi_1
ExtrapolatedMuonTrackParticlesAuxDyn.deltatheta_0
ExtrapolatedMuonTrackParticlesAuxDyn.deltatheta_1
ExtrapolatedMuonTrackParticlesAuxDyn.eProbabilityNN
ExtrapolatedMuonTrackParticlesAuxDyn.parameterPX
ExtrapolatedMuonTrackParticlesAuxDyn.parameterPY
ExtrapolatedMuonTrackParticlesAuxDyn.parameterPZ
ExtrapolatedMuonTrackParticlesAuxDyn.parameterPosition
ExtrapolatedMuonTrackParticlesAuxDyn.parameterX
ExtrapolatedMuonTrackParticlesAuxDyn.parameterY
ExtrapolatedMuonTrackParticlesAuxDyn.parameterZ
ExtrapolatedMuonTrackParticlesAuxDyn.sigmadeltaphi_0
ExtrapolatedMuonTrackParticlesAuxDyn.sigmadeltaphi_1
ExtrapolatedMuonTrackParticlesAuxDyn.sigmadeltatheta_0
ExtrapolatedMuonTrackParticlesAuxDyn.sigmadeltatheta_1
ExtrapolatedMuonTrackParticlesAuxDyn.trackLink
ExtrapolatedMuonTrackParticlesAuxDyn.trackParameterCovarianceMatrices
ExtrapolatedMuonTrackParticlesAuxDyn.truthOrigin
ExtrapolatedMuonTrackParticlesAuxDyn.truthParticleLink
ExtrapolatedMuonTrackParticlesAuxDyn.truthType
ExtrapolatedStauTrackParticles
ExtrapolatedStauTrackParticlesAux.
FileMetaData
FileMetaDataAux.
FileMetaDataAuxDyn.amiTag
FileMetaDataAuxDyn.beamEnergy
FileMetaDataAuxDyn.beamType
FileMetaDataAuxDyn.conditionsTag
FileMetaDataAuxDyn.generatorsInfo
FileMetaDataAuxDyn.geometryVersion
FileMetaDataAuxDyn.isDataOverlay
FileMetaDataAuxDyn.mcCampaign
FileMetaDataAuxDyn.mcProcID
FileMetaDataAuxDyn.simFlavour
ForwardElectronClusters
ForwardElectronClustersAux.
ForwardElectronClustersAuxDyn.AVG_LAR_Q
ForwardElectronClustersAuxDyn.AVG_TILE_Q
ForwardElectronClustersAuxDyn.BADLARQ_FRAC
ForwardElectronClustersAuxDyn.BAD_CELLS_CORR_E
ForwardElectronClustersAuxDyn.BadChannelList
ForwardElectronClustersAuxDyn.CELL_SIGNIFICANCE
ForwardElectronClustersAuxDyn.CELL_SIG_SAMPLING
ForwardElectronClustersAuxDyn.CENTER_LAMBDA
ForwardElectronClustersAuxDyn.CENTER_MAG
ForwardElectronClustersAuxDyn.CENTER_X
ForwardElectronClustersAuxDyn.CENTER_Y
ForwardElectronClustersAuxDyn.CENTER_Z
ForwardElectronClustersAuxDyn.CellLink
ForwardElectronClustersAuxDyn.DELTA_ALPHA
ForwardElectronClustersAuxDyn.DELTA_PHI
ForwardElectronClustersAuxDyn.DELTA_THETA
ForwardElectronClustersAuxDyn.DM_WEIGHT
ForwardElectronClustersAuxDyn.EM_PROBABILITY
ForwardElectronClustersAuxDyn.ENG_BAD_CELLS
ForwardElectronClustersAuxDyn.ENG_BAD_HV_CELLS
ForwardElectronClustersAuxDyn.ENG_FRAC_CORE
ForwardElectronClustersAuxDyn.ENG_FRAC_EM
ForwardElectronClustersAuxDyn.ENG_FRAC_MAX
ForwardElectronClustersAuxDyn.ENG_POS
ForwardElectronClustersAuxDyn.FIRST_ENG_DENS
ForwardElectronClustersAuxDyn.FIRST_ETA
ForwardElectronClustersAuxDyn.FIRST_PHI
ForwardElectronClustersAuxDyn.HAD_WEIGHT
ForwardElectronClustersAuxDyn.ISOLATION
ForwardElectronClustersAuxDyn.LATERAL
ForwardElectronClustersAuxDyn.LONGITUDINAL
ForwardElectronClustersAuxDyn.MASS
ForwardElectronClustersAuxDyn.NCELL_SAMPLING
ForwardElectronClustersAuxDyn.N_BAD_CELLS
ForwardElectronClustersAuxDyn.N_BAD_CELLS_CORR
ForwardElectronClustersAuxDyn.N_BAD_HV_CELLS
ForwardElectronClustersAuxDyn.OOC_WEIGHT
ForwardElectronClustersAuxDyn.PTD
ForwardElectronClustersAuxDyn.SECOND_ENG_DENS
ForwardElectronClustersAuxDyn.SECOND_LAMBDA
ForwardElectronClustersAuxDyn.SECOND_R
ForwardElectronClustersAuxDyn.SECOND_TIME
ForwardElectronClustersAuxDyn.SIGNIFICANCE
ForwardElectronClustersAuxDyn.constituentClusterLinks
ForwardElectronClustersAuxDyn.emax_sampl
ForwardElectronClustersAuxDyn.eta_sampl
ForwardElectronClustersAuxDyn.etamax_sampl
ForwardElectronClustersAuxDyn.phi_sampl
ForwardElectronClustersAuxDyn.phimax_sampl
ForwardElectronClusters_links
ForwardElectrons
ForwardElectronsAux.
ForwardElectronsAuxDyn.Loose
ForwardElectronsAuxDyn.Medium
ForwardElectronsAuxDyn.Tight
ForwardElectronsAuxDyn.truthOrigin
ForwardElectronsAuxDyn.truthParticleLink
ForwardElectronsAuxDyn.truthType
GSFConversionVertices
GSFConversionVerticesAux.
GSFConversionVerticesAuxDyn.DR1R2
GSFConversionVerticesAuxDyn.deltaCotThetaTrk
GSFConversionVerticesAuxDyn.deltaInitRadius
GSFConversionVerticesAuxDyn.deltaPhiTracks
GSFConversionVerticesAuxDyn.deltaPhiVtxTrk
GSFConversionVerticesAuxDyn.etaAtCalo
GSFConversionVerticesAuxDyn.mass
GSFConversionVerticesAuxDyn.minRfirstHit
GSFConversionVerticesAuxDyn.minimumDistanceTrk
GSFConversionVerticesAuxDyn.phiAtCalo
GSFConversionVerticesAuxDyn.pt1
GSFConversionVerticesAuxDyn.pt2
GSFConversionVerticesAuxDyn.px
GSFConversionVerticesAuxDyn.py
GSFConversionVerticesAuxDyn.pz
GSFTrackParticles
GSFTrackParticlesAux.
GSFTrackParticlesAuxDyn.QoverPLM
GSFTrackParticlesAuxDyn.TRTdEdx
GSFTrackParticlesAuxDyn.TRTdEdxUsedHits
GSFTrackParticlesAuxDyn.eProbabilityNN
GSFTrackParticlesAuxDyn.originalTrackParticle
GSFTrackParticlesAuxDyn.parameterPX
GSFTrackParticlesAuxDyn.parameterPY
GSFTrackParticlesAuxDyn.parameterPZ
GSFTrackParticlesAuxDyn.parameterPosition
GSFTrackParticlesAuxDyn.parameterX
GSFTrackParticlesAuxDyn.parameterY
GSFTrackParticlesAuxDyn.parameterZ
GSFTrackParticlesAuxDyn.trackLink
GSFTrackParticlesAuxDyn.trackParameterCovarianceMatrices
GSFTrackParticlesAuxDyn.truthMatchProbability
GSFTrackParticlesAuxDyn.truthOrigin
GSFTrackParticlesAuxDyn.truthParticleLink
GSFTrackParticlesAuxDyn.truthType
HLTNav_R2ToR3Summary
HLTNav_R2ToR3SummaryAux.
HLTNav_Summary_AODSlimmed
HLTNav_Summary_AODSlimmedAux.
HLT_AFPProtonContainer
HLT_AFPProtonContainerAux.
HLT_AFPSiHitsClusterContainer
HLT_AFPSiHitsClusterContainerAux.
HLT_AFPToFTrackContainer
HLT_AFPToFTrackContainerAux.
HLT_AFPTrackContainer
HLT_AFPTrackContainerAux.
HLT_AFPVertexContainer
HLT_AFPVertexContainerAux.
HLT_AntiKt10EMPFlowCSSKSoftDropBeta100Zcut10Jets_jes_ftf
HLT_AntiKt10EMPFlowCSSKSoftDropBeta100Zcut10Jets_jes_ftfAux.
HLT_AntiKt10EMPFlowCSSKSoftDropBeta100Zcut10Jets_jes_ftfAuxDyn.AlgorithmType
HLT_AntiKt10EMPFlowCSSKSoftDropBeta100Zcut10Jets_jes_ftfAuxDyn.DetectorEta
HLT_AntiKt10EMPFlowCSSKSoftDropBeta100Zcut10Jets_jes_ftfAuxDyn.DetectorPhi
HLT_AntiKt10EMPFlowCSSKSoftDropBeta100Zcut10Jets_jes_ftfAuxDyn.InputType
HLT_AntiKt10EMPFlowCSSKSoftDropBeta100Zcut10Jets_jes_ftfAuxDyn.JetConstitScaleMomentum_eta
HLT_AntiKt10EMPFlowCSSKSoftDropBeta100Zcut10Jets_jes_ftfAuxDyn.JetConstitScaleMomentum_m
HLT_AntiKt10EMPFlowCSSKSoftDropBeta100Zcut10Jets_jes_ftfAuxDyn.JetConstitScaleMomentum_phi
HLT_AntiKt10EMPFlowCSSKSoftDropBeta100Zcut10Jets_jes_ftfAuxDyn.JetConstitScaleMomentum_pt
HLT_AntiKt10EMPFlowCSSKSoftDropBeta100Zcut10Jets_jes_ftfAuxDyn.JetEtaJESScaleMomentum_eta
HLT_AntiKt10EMPFlowCSSKSoftDropBeta100Zcut10Jets_jes_ftfAuxDyn.JetEtaJESScaleMomentum_m
HLT_AntiKt10EMPFlowCSSKSoftDropBeta100Zcut10Jets_jes_ftfAuxDyn.JetEtaJESScaleMomentum_phi
HLT_AntiKt10EMPFlowCSSKSoftDropBeta100Zcut10Jets_jes_ftfAuxDyn.JetEtaJESScaleMomentum_pt
HLT_AntiKt10EMPFlowCSSKSoftDropBeta100Zcut10Jets_jes_ftfAuxDyn.SizeParameter
HLT_AntiKt10LCTopoTrimmedPtFrac4SmallR20Jets_jes
HLT_AntiKt10LCTopoTrimmedPtFrac4SmallR20Jets_jesAux.
HLT_AntiKt10LCTopoTrimmedPtFrac4SmallR20Jets_jesAuxDyn.AlgorithmType
HLT_AntiKt10LCTopoTrimmedPtFrac4SmallR20Jets_jesAuxDyn.DetectorEta
HLT_AntiKt10LCTopoTrimmedPtFrac4SmallR20Jets_jesAuxDyn.DetectorPhi
HLT_AntiKt10LCTopoTrimmedPtFrac4SmallR20Jets_jesAuxDyn.InputType
HLT_AntiKt10LCTopoTrimmedPtFrac4SmallR20Jets_jesAuxDyn.JetConstitScaleMomentum_eta
HLT_AntiKt10LCTopoTrimmedPtFrac4SmallR20Jets_jesAuxDyn.JetConstitScaleMomentum_m
HLT_AntiKt10LCTopoTrimmedPtFrac4SmallR20Jets_jesAuxDyn.JetConstitScaleMomentum_phi
HLT_AntiKt10LCTopoTrimmedPtFrac4SmallR20Jets_jesAuxDyn.JetConstitScaleMomentum_pt
HLT_AntiKt10LCTopoTrimmedPtFrac4SmallR20Jets_jesAuxDyn.JetEtaJESScaleMomentum_eta
HLT_AntiKt10LCTopoTrimmedPtFrac4SmallR20Jets_jesAuxDyn.JetEtaJESScaleMomentum_m
HLT_AntiKt10LCTopoTrimmedPtFrac4SmallR20Jets_jesAuxDyn.JetEtaJESScaleMomentum_phi
HLT_AntiKt10LCTopoTrimmedPtFrac4SmallR20Jets_jesAuxDyn.JetEtaJESScaleMomentum_pt
HLT_AntiKt10LCTopoTrimmedPtFrac4SmallR20Jets_jesAuxDyn.SizeParameter
HLT_AntiKt4EMPFlowJets_nojcalib_ftf
HLT_AntiKt4EMPFlowJets_nojcalib_ftfAux.
HLT_AntiKt4EMPFlowJets_nojcalib_ftfAuxDyn.ActiveArea
HLT_AntiKt4EMPFlowJets_nojcalib_ftfAuxDyn.ActiveArea4vec_eta
HLT_AntiKt4EMPFlowJets_nojcalib_ftfAuxDyn.ActiveArea4vec_m
HLT_AntiKt4EMPFlowJets_nojcalib_ftfAuxDyn.ActiveArea4vec_phi
HLT_AntiKt4EMPFlowJets_nojcalib_ftfAuxDyn.ActiveArea4vec_pt
HLT_AntiKt4EMPFlowJets_nojcalib_ftfAuxDyn.AlgorithmType
HLT_AntiKt4EMPFlowJets_nojcalib_ftfAuxDyn.DetectorEta
HLT_AntiKt4EMPFlowJets_nojcalib_ftfAuxDyn.DetectorPhi
HLT_AntiKt4EMPFlowJets_nojcalib_ftfAuxDyn.EMFrac
HLT_AntiKt4EMPFlowJets_nojcalib_ftfAuxDyn.EnergyPerSampling
HLT_AntiKt4EMPFlowJets_nojcalib_ftfAuxDyn.HECFrac
HLT_AntiKt4EMPFlowJets_nojcalib_ftfAuxDyn.InputType
HLT_AntiKt4EMPFlowJets_nojcalib_ftfAuxDyn.JVFCorr
HLT_AntiKt4EMPFlowJets_nojcalib_ftfAuxDyn.JetConstitScaleMomentum_eta
HLT_AntiKt4EMPFlowJets_nojcalib_ftfAuxDyn.JetConstitScaleMomentum_m
HLT_AntiKt4EMPFlowJets_nojcalib_ftfAuxDyn.JetConstitScaleMomentum_phi
HLT_AntiKt4EMPFlowJets_nojcalib_ftfAuxDyn.JetConstitScaleMomentum_pt
HLT_AntiKt4EMPFlowJets_nojcalib_ftfAuxDyn.Jvt
HLT_AntiKt4EMPFlowJets_nojcalib_ftfAuxDyn.JvtRpt
HLT_AntiKt4EMPFlowJets_nojcalib_ftfAuxDyn.NumTrkPt1000
HLT_AntiKt4EMPFlowJets_nojcalib_ftfAuxDyn.SizeParameter
HLT_AntiKt4EMPFlowJets_nojcalib_ftfAuxDyn.SumPtChargedPFOPt500
HLT_AntiKt4EMPFlowJets_nojcalib_ftfAuxDyn.SumPtTrkPt500
HLT_AntiKt4EMPFlowJets_nojcalib_ftfAuxDyn.TrackWidthPt1000
HLT_AntiKt4EMPFlowJets_subresjesgscIS_ftf
HLT_AntiKt4EMPFlowJets_subresjesgscIS_ftfAux.
HLT_AntiKt4EMPFlowJets_subresjesgscIS_ftfAuxDyn.JetEtaJESScaleMomentum_eta
HLT_AntiKt4EMPFlowJets_subresjesgscIS_ftfAuxDyn.JetEtaJESScaleMomentum_m
HLT_AntiKt4EMPFlowJets_subresjesgscIS_ftfAuxDyn.JetEtaJESScaleMomentum_phi
HLT_AntiKt4EMPFlowJets_subresjesgscIS_ftfAuxDyn.JetEtaJESScaleMomentum_pt
HLT_AntiKt4EMPFlowJets_subresjesgscIS_ftfAuxDyn.JetGSCScaleMomentum_eta
HLT_AntiKt4EMPFlowJets_subresjesgscIS_ftfAuxDyn.JetGSCScaleMomentum_m
HLT_AntiKt4EMPFlowJets_subresjesgscIS_ftfAuxDyn.JetGSCScaleMomentum_phi
HLT_AntiKt4EMPFlowJets_subresjesgscIS_ftfAuxDyn.JetGSCScaleMomentum_pt
HLT_AntiKt4EMPFlowJets_subresjesgscIS_ftfAuxDyn.JetPileupScaleMomentum_eta
HLT_AntiKt4EMPFlowJets_subresjesgscIS_ftfAuxDyn.JetPileupScaleMomentum_m
HLT_AntiKt4EMPFlowJets_subresjesgscIS_ftfAuxDyn.JetPileupScaleMomentum_phi
HLT_AntiKt4EMPFlowJets_subresjesgscIS_ftfAuxDyn.JetPileupScaleMomentum_pt
HLT_AntiKt4EMPFlowJets_subresjesgscIS_ftfAuxDyn.Jvt
HLT_AntiKt4EMPFlowJets_subresjesgscIS_ftfAuxDyn.JvtRpt
HLT_AntiKt4EMPFlowJets_subresjesgscIS_ftfAuxDyn.Timing
HLT_AntiKt4EMPFlowJets_subresjesgscIS_ftfAuxDyn.dips20211116_pb
HLT_AntiKt4EMPFlowJets_subresjesgscIS_ftfAuxDyn.dips20211116_pc
HLT_AntiKt4EMPFlowJets_subresjesgscIS_ftfAuxDyn.dips20211116_pu
HLT_AntiKt4EMPFlowJets_subresjesgscIS_ftfAuxDyn.eta
HLT_AntiKt4EMPFlowJets_subresjesgscIS_ftfAuxDyn.fastDIPS20211215_pb
HLT_AntiKt4EMPFlowJets_subresjesgscIS_ftfAuxDyn.fastDIPS20211215_pc
HLT_AntiKt4EMPFlowJets_subresjesgscIS_ftfAuxDyn.fastDIPS20211215_pu
HLT_AntiKt4EMPFlowJets_subresjesgscIS_ftfAuxDyn.m
HLT_AntiKt4EMPFlowJets_subresjesgscIS_ftfAuxDyn.phi
HLT_AntiKt4EMPFlowJets_subresjesgscIS_ftfAuxDyn.pt
HLT_AntiKt4EMPFlowJets_subresjesgscIS_ftf_BTagging
HLT_AntiKt4EMPFlowJets_subresjesgscIS_ftf_BTaggingAux.
HLT_AntiKt4EMPFlowJets_subresjesgscIS_ftf_BTaggingAuxDyn.BTagTrackToJetAssociator
HLT_AntiKt4EMPFlowJets_subresjesgscIS_ftf_BTaggingAuxDyn.DL1_pb
HLT_AntiKt4EMPFlowJets_subresjesgscIS_ftf_BTaggingAuxDyn.DL1_pc
HLT_AntiKt4EMPFlowJets_subresjesgscIS_ftf_BTaggingAuxDyn.DL1_pu
HLT_AntiKt4EMPFlowJets_subresjesgscIS_ftf_BTaggingAuxDyn.DL1bb20220331_pb
HLT_AntiKt4EMPFlowJets_subresjesgscIS_ftf_BTaggingAuxDyn.DL1d20210519r22_pb
HLT_AntiKt4EMPFlowJets_subresjesgscIS_ftf_BTaggingAuxDyn.DL1d20210519r22_pc
HLT_AntiKt4EMPFlowJets_subresjesgscIS_ftf_BTaggingAuxDyn.DL1d20210519r22_pu
HLT_AntiKt4EMPFlowJets_subresjesgscIS_ftf_BTaggingAuxDyn.DL1d20210528r22_pb
HLT_AntiKt4EMPFlowJets_subresjesgscIS_ftf_BTaggingAuxDyn.DL1d20210528r22_pc
HLT_AntiKt4EMPFlowJets_subresjesgscIS_ftf_BTaggingAuxDyn.DL1d20210528r22_pu
HLT_AntiKt4EMPFlowJets_subresjesgscIS_ftf_BTaggingAuxDyn.DL1d20211216_pb
HLT_AntiKt4EMPFlowJets_subresjesgscIS_ftf_BTaggingAuxDyn.DL1d20211216_pc
HLT_AntiKt4EMPFlowJets_subresjesgscIS_ftf_BTaggingAuxDyn.DL1d20211216_pu
HLT_AntiKt4EMPFlowJets_subresjesgscIS_ftf_BTaggingAuxDyn.DL1r_pb
HLT_AntiKt4EMPFlowJets_subresjesgscIS_ftf_BTaggingAuxDyn.DL1r_pc
HLT_AntiKt4EMPFlowJets_subresjesgscIS_ftf_BTaggingAuxDyn.DL1r_pu
HLT_AntiKt4EMPFlowJets_subresjesgscIS_ftf_BTaggingAuxDyn.IP2D_TrackParticleLinks
HLT_AntiKt4EMPFlowJets_subresjesgscIS_ftf_BTaggingAuxDyn.IP2D_bc
HLT_AntiKt4EMPFlowJets_subresjesgscIS_ftf_BTaggingAuxDyn.IP2D_bu
HLT_AntiKt4EMPFlowJets_subresjesgscIS_ftf_BTaggingAuxDyn.IP2D_cu
HLT_AntiKt4EMPFlowJets_subresjesgscIS_ftf_BTaggingAuxDyn.IP2D_isDefaults
HLT_AntiKt4EMPFlowJets_subresjesgscIS_ftf_BTaggingAuxDyn.IP2D_nTrks
HLT_AntiKt4EMPFlowJets_subresjesgscIS_ftf_BTaggingAuxDyn.IP2D_pb
HLT_AntiKt4EMPFlowJets_subresjesgscIS_ftf_BTaggingAuxDyn.IP2D_pc
HLT_AntiKt4EMPFlowJets_subresjesgscIS_ftf_BTaggingAuxDyn.IP2D_pu
HLT_AntiKt4EMPFlowJets_subresjesgscIS_ftf_BTaggingAuxDyn.IP3D_TrackParticleLinks
HLT_AntiKt4EMPFlowJets_subresjesgscIS_ftf_BTaggingAuxDyn.IP3D_bc
HLT_AntiKt4EMPFlowJets_subresjesgscIS_ftf_BTaggingAuxDyn.IP3D_bu
HLT_AntiKt4EMPFlowJets_subresjesgscIS_ftf_BTaggingAuxDyn.IP3D_cu
HLT_AntiKt4EMPFlowJets_subresjesgscIS_ftf_BTaggingAuxDyn.IP3D_isDefaults
HLT_AntiKt4EMPFlowJets_subresjesgscIS_ftf_BTaggingAuxDyn.IP3D_nTrks
HLT_AntiKt4EMPFlowJets_subresjesgscIS_ftf_BTaggingAuxDyn.IP3D_pb
HLT_AntiKt4EMPFlowJets_subresjesgscIS_ftf_BTaggingAuxDyn.IP3D_pc
HLT_AntiKt4EMPFlowJets_subresjesgscIS_ftf_BTaggingAuxDyn.IP3D_pu
HLT_AntiKt4EMPFlowJets_subresjesgscIS_ftf_BTaggingAuxDyn.JetFitterSecondaryVertex_averageAllJetTrackRelativeEta
HLT_AntiKt4EMPFlowJets_subresjesgscIS_ftf_BTaggingAuxDyn.JetFitterSecondaryVertex_averageTrackRelativeEta
HLT_AntiKt4EMPFlowJets_subresjesgscIS_ftf_BTaggingAuxDyn.JetFitterSecondaryVertex_displacement2d
HLT_AntiKt4EMPFlowJets_subresjesgscIS_ftf_BTaggingAuxDyn.JetFitterSecondaryVertex_displacement3d
HLT_AntiKt4EMPFlowJets_subresjesgscIS_ftf_BTaggingAuxDyn.JetFitterSecondaryVertex_energy
HLT_AntiKt4EMPFlowJets_subresjesgscIS_ftf_BTaggingAuxDyn.JetFitterSecondaryVertex_energyFraction
HLT_AntiKt4EMPFlowJets_subresjesgscIS_ftf_BTaggingAuxDyn.JetFitterSecondaryVertex_isDefaults
HLT_AntiKt4EMPFlowJets_subresjesgscIS_ftf_BTaggingAuxDyn.JetFitterSecondaryVertex_mass
HLT_AntiKt4EMPFlowJets_subresjesgscIS_ftf_BTaggingAuxDyn.JetFitterSecondaryVertex_maximumAllJetTrackRelativeEta
HLT_AntiKt4EMPFlowJets_subresjesgscIS_ftf_BTaggingAuxDyn.JetFitterSecondaryVertex_maximumTrackRelativeEta
HLT_AntiKt4EMPFlowJets_subresjesgscIS_ftf_BTaggingAuxDyn.JetFitterSecondaryVertex_minimumAllJetTrackRelativeEta
HLT_AntiKt4EMPFlowJets_subresjesgscIS_ftf_BTaggingAuxDyn.JetFitterSecondaryVertex_minimumTrackRelativeEta
HLT_AntiKt4EMPFlowJets_subresjesgscIS_ftf_BTaggingAuxDyn.JetFitterSecondaryVertex_nTracks
HLT_AntiKt4EMPFlowJets_subresjesgscIS_ftf_BTaggingAuxDyn.JetFitter_JFvertices
HLT_AntiKt4EMPFlowJets_subresjesgscIS_ftf_BTaggingAuxDyn.JetFitter_N2Tpair
HLT_AntiKt4EMPFlowJets_subresjesgscIS_ftf_BTaggingAuxDyn.JetFitter_chi2
HLT_AntiKt4EMPFlowJets_subresjesgscIS_ftf_BTaggingAuxDyn.JetFitter_dRFlightDir
HLT_AntiKt4EMPFlowJets_subresjesgscIS_ftf_BTaggingAuxDyn.JetFitter_deltaR
HLT_AntiKt4EMPFlowJets_subresjesgscIS_ftf_BTaggingAuxDyn.JetFitter_deltaeta
HLT_AntiKt4EMPFlowJets_subresjesgscIS_ftf_BTaggingAuxDyn.JetFitter_deltaphi
HLT_AntiKt4EMPFlowJets_subresjesgscIS_ftf_BTaggingAuxDyn.JetFitter_energyFraction
HLT_AntiKt4EMPFlowJets_subresjesgscIS_ftf_BTaggingAuxDyn.JetFitter_fittedCov
HLT_AntiKt4EMPFlowJets_subresjesgscIS_ftf_BTaggingAuxDyn.JetFitter_fittedPosition
HLT_AntiKt4EMPFlowJets_subresjesgscIS_ftf_BTaggingAuxDyn.JetFitter_isDefaults
HLT_AntiKt4EMPFlowJets_subresjesgscIS_ftf_BTaggingAuxDyn.JetFitter_mass
HLT_AntiKt4EMPFlowJets_subresjesgscIS_ftf_BTaggingAuxDyn.JetFitter_massUncorr
HLT_AntiKt4EMPFlowJets_subresjesgscIS_ftf_BTaggingAuxDyn.JetFitter_nSingleTracks
HLT_AntiKt4EMPFlowJets_subresjesgscIS_ftf_BTaggingAuxDyn.JetFitter_nTracksAtVtx
HLT_AntiKt4EMPFlowJets_subresjesgscIS_ftf_BTaggingAuxDyn.JetFitter_nVTX
HLT_AntiKt4EMPFlowJets_subresjesgscIS_ftf_BTaggingAuxDyn.JetFitter_ndof
HLT_AntiKt4EMPFlowJets_subresjesgscIS_ftf_BTaggingAuxDyn.JetFitter_significance3d
HLT_AntiKt4EMPFlowJets_subresjesgscIS_ftf_BTaggingAuxDyn.JetFitter_tracksAtPVchi2
HLT_AntiKt4EMPFlowJets_subresjesgscIS_ftf_BTaggingAuxDyn.JetFitter_tracksAtPVlinks
HLT_AntiKt4EMPFlowJets_subresjesgscIS_ftf_BTaggingAuxDyn.JetFitter_tracksAtPVndf
HLT_AntiKt4EMPFlowJets_subresjesgscIS_ftf_BTaggingAuxDyn.Muons
HLT_AntiKt4EMPFlowJets_subresjesgscIS_ftf_BTaggingAuxDyn.SV1_L3d
HLT_AntiKt4EMPFlowJets_subresjesgscIS_ftf_BTaggingAuxDyn.SV1_Lxy
HLT_AntiKt4EMPFlowJets_subresjesgscIS_ftf_BTaggingAuxDyn.SV1_N2Tpair
HLT_AntiKt4EMPFlowJets_subresjesgscIS_ftf_BTaggingAuxDyn.SV1_NGTinSvx
HLT_AntiKt4EMPFlowJets_subresjesgscIS_ftf_BTaggingAuxDyn.SV1_TrackParticleLinks
HLT_AntiKt4EMPFlowJets_subresjesgscIS_ftf_BTaggingAuxDyn.SV1_badTracksIP
HLT_AntiKt4EMPFlowJets_subresjesgscIS_ftf_BTaggingAuxDyn.SV1_deltaR
HLT_AntiKt4EMPFlowJets_subresjesgscIS_ftf_BTaggingAuxDyn.SV1_dstToMatLay
HLT_AntiKt4EMPFlowJets_subresjesgscIS_ftf_BTaggingAuxDyn.SV1_efracsvx
HLT_AntiKt4EMPFlowJets_subresjesgscIS_ftf_BTaggingAuxDyn.SV1_energyTrkInJet
HLT_AntiKt4EMPFlowJets_subresjesgscIS_ftf_BTaggingAuxDyn.SV1_isDefaults
HLT_AntiKt4EMPFlowJets_subresjesgscIS_ftf_BTaggingAuxDyn.SV1_masssvx
HLT_AntiKt4EMPFlowJets_subresjesgscIS_ftf_BTaggingAuxDyn.SV1_normdist
HLT_AntiKt4EMPFlowJets_subresjesgscIS_ftf_BTaggingAuxDyn.SV1_significance3d
HLT_AntiKt4EMPFlowJets_subresjesgscIS_ftf_BTaggingAuxDyn.SV1_vertices
HLT_AntiKt4EMPFlowJets_subresjesgscIS_ftf_BTaggingAuxDyn.dips20210517_pb
HLT_AntiKt4EMPFlowJets_subresjesgscIS_ftf_BTaggingAuxDyn.dips20210517_pc
HLT_AntiKt4EMPFlowJets_subresjesgscIS_ftf_BTaggingAuxDyn.dips20210517_pu
HLT_AntiKt4EMPFlowJets_subresjesgscIS_ftf_BTaggingAuxDyn.dipsLoose20210517_pb
HLT_AntiKt4EMPFlowJets_subresjesgscIS_ftf_BTaggingAuxDyn.dipsLoose20210517_pc
HLT_AntiKt4EMPFlowJets_subresjesgscIS_ftf_BTaggingAuxDyn.dipsLoose20210517_pu
HLT_AntiKt4EMPFlowJets_subresjesgscIS_ftf_BTaggingAuxDyn.dipsLoose20210729_pb
HLT_AntiKt4EMPFlowJets_subresjesgscIS_ftf_BTaggingAuxDyn.dipsLoose20210729_pc
HLT_AntiKt4EMPFlowJets_subresjesgscIS_ftf_BTaggingAuxDyn.dipsLoose20210729_pu
HLT_AntiKt4EMPFlowJets_subresjesgscIS_ftf_BTaggingAuxDyn.jetLink
HLT_AntiKt4EMPFlowJets_subresjesgscIS_ftf_BTaggingAuxDyn.rnnip_isDefaults
HLT_AntiKt4EMPFlowJets_subresjesgscIS_ftf_BTaggingAuxDyn.rnnip_pb
HLT_AntiKt4EMPFlowJets_subresjesgscIS_ftf_BTaggingAuxDyn.rnnip_pc
HLT_AntiKt4EMPFlowJets_subresjesgscIS_ftf_BTaggingAuxDyn.rnnip_ptau
HLT_AntiKt4EMPFlowJets_subresjesgscIS_ftf_BTaggingAuxDyn.rnnip_pu
HLT_AntiKt4EMPFlowJets_subresjesgscIS_ftf_BTaggingAuxDyn.viewIndex
HLT_AntiKt4EMPFlowJets_subresjesgscIS_ftf_bJets
HLT_AntiKt4EMPFlowJets_subresjesgscIS_ftf_bJetsAux.
HLT_AntiKt4EMPFlowJets_subresjesgscIS_ftf_bJetsAuxDyn.JVFCorr
HLT_AntiKt4EMPFlowJets_subresjesgscIS_ftf_bJetsAuxDyn.Jvt
HLT_AntiKt4EMPFlowJets_subresjesgscIS_ftf_bJetsAuxDyn.SumPtTrkPt500
HLT_AntiKt4EMPFlowJets_subresjesgscIS_ftf_bJetsAuxDyn.btaggingLink
HLT_AntiKt4EMPFlowJets_subresjesgscIS_ftf_bJetsAuxDyn.viewIndex
HLT_AntiKt4EMTopoJets_nojcalib
HLT_AntiKt4EMTopoJets_nojcalibAux.
HLT_AntiKt4EMTopoJets_nojcalibAuxDyn.ActiveArea
HLT_AntiKt4EMTopoJets_nojcalibAuxDyn.ActiveArea4vec_eta
HLT_AntiKt4EMTopoJets_nojcalibAuxDyn.ActiveArea4vec_m
HLT_AntiKt4EMTopoJets_nojcalibAuxDyn.ActiveArea4vec_phi
HLT_AntiKt4EMTopoJets_nojcalibAuxDyn.ActiveArea4vec_pt
HLT_AntiKt4EMTopoJets_nojcalibAuxDyn.AlgorithmType
HLT_AntiKt4EMTopoJets_nojcalibAuxDyn.DetectorEta
HLT_AntiKt4EMTopoJets_nojcalibAuxDyn.DetectorPhi
HLT_AntiKt4EMTopoJets_nojcalibAuxDyn.EMFrac
HLT_AntiKt4EMTopoJets_nojcalibAuxDyn.EnergyPerSampling
HLT_AntiKt4EMTopoJets_nojcalibAuxDyn.HECFrac
HLT_AntiKt4EMTopoJets_nojcalibAuxDyn.InputType
HLT_AntiKt4EMTopoJets_nojcalibAuxDyn.JetConstitScaleMomentum_eta
HLT_AntiKt4EMTopoJets_nojcalibAuxDyn.JetConstitScaleMomentum_m
HLT_AntiKt4EMTopoJets_nojcalibAuxDyn.JetConstitScaleMomentum_phi
HLT_AntiKt4EMTopoJets_nojcalibAuxDyn.JetConstitScaleMomentum_pt
HLT_AntiKt4EMTopoJets_nojcalibAuxDyn.SizeParameter
HLT_AntiKt4EMTopoJets_nojcalib_ftf
HLT_AntiKt4EMTopoJets_nojcalib_ftfAux.
HLT_AntiKt4EMTopoJets_nojcalib_ftfAuxDyn.ActiveArea
HLT_AntiKt4EMTopoJets_nojcalib_ftfAuxDyn.ActiveArea4vec_eta
HLT_AntiKt4EMTopoJets_nojcalib_ftfAuxDyn.ActiveArea4vec_m
HLT_AntiKt4EMTopoJets_nojcalib_ftfAuxDyn.ActiveArea4vec_phi
HLT_AntiKt4EMTopoJets_nojcalib_ftfAuxDyn.ActiveArea4vec_pt
HLT_AntiKt4EMTopoJets_nojcalib_ftfAuxDyn.AlgorithmType
HLT_AntiKt4EMTopoJets_nojcalib_ftfAuxDyn.DetectorEta
HLT_AntiKt4EMTopoJets_nojcalib_ftfAuxDyn.DetectorPhi
HLT_AntiKt4EMTopoJets_nojcalib_ftfAuxDyn.EMFrac
HLT_AntiKt4EMTopoJets_nojcalib_ftfAuxDyn.EnergyPerSampling
HLT_AntiKt4EMTopoJets_nojcalib_ftfAuxDyn.HECFrac
HLT_AntiKt4EMTopoJets_nojcalib_ftfAuxDyn.InputType
HLT_AntiKt4EMTopoJets_nojcalib_ftfAuxDyn.JVFCorr
HLT_AntiKt4EMTopoJets_nojcalib_ftfAuxDyn.JetConstitScaleMomentum_eta
HLT_AntiKt4EMTopoJets_nojcalib_ftfAuxDyn.JetConstitScaleMomentum_m
HLT_AntiKt4EMTopoJets_nojcalib_ftfAuxDyn.JetConstitScaleMomentum_phi
HLT_AntiKt4EMTopoJets_nojcalib_ftfAuxDyn.JetConstitScaleMomentum_pt
HLT_AntiKt4EMTopoJets_nojcalib_ftfAuxDyn.Jvt
HLT_AntiKt4EMTopoJets_nojcalib_ftfAuxDyn.JvtRpt
HLT_AntiKt4EMTopoJets_nojcalib_ftfAuxDyn.NumTrkPt1000
HLT_AntiKt4EMTopoJets_nojcalib_ftfAuxDyn.SizeParameter
HLT_AntiKt4EMTopoJets_nojcalib_ftfAuxDyn.SumPtTrkPt500
HLT_AntiKt4EMTopoJets_nojcalib_ftfAuxDyn.TrackWidthPt1000
HLT_AntiKt4EMTopoJets_subjesIS
HLT_AntiKt4EMTopoJets_subjesISAux.
HLT_AntiKt4EMTopoJets_subjesISAuxDyn.JetEtaJESScaleMomentum_eta
HLT_AntiKt4EMTopoJets_subjesISAuxDyn.JetEtaJESScaleMomentum_m
HLT_AntiKt4EMTopoJets_subjesISAuxDyn.JetEtaJESScaleMomentum_phi
HLT_AntiKt4EMTopoJets_subjesISAuxDyn.JetEtaJESScaleMomentum_pt
HLT_AntiKt4EMTopoJets_subjesISAuxDyn.JetGSCScaleMomentum_eta
HLT_AntiKt4EMTopoJets_subjesISAuxDyn.JetGSCScaleMomentum_m
HLT_AntiKt4EMTopoJets_subjesISAuxDyn.JetGSCScaleMomentum_phi
HLT_AntiKt4EMTopoJets_subjesISAuxDyn.JetGSCScaleMomentum_pt
HLT_AntiKt4EMTopoJets_subjesISAuxDyn.JetPileupScaleMomentum_eta
HLT_AntiKt4EMTopoJets_subjesISAuxDyn.JetPileupScaleMomentum_m
HLT_AntiKt4EMTopoJets_subjesISAuxDyn.JetPileupScaleMomentum_phi
HLT_AntiKt4EMTopoJets_subjesISAuxDyn.JetPileupScaleMomentum_pt
HLT_AntiKt4EMTopoJets_subjesISAuxDyn.Timing
HLT_AntiKt4EMTopoJets_subjesISAuxDyn.eta
HLT_AntiKt4EMTopoJets_subjesISAuxDyn.m
HLT_AntiKt4EMTopoJets_subjesISAuxDyn.phi
HLT_AntiKt4EMTopoJets_subjesISAuxDyn.pt
HLT_AntiKt4EMTopoJets_subresjesgscIS_ftf
HLT_AntiKt4EMTopoJets_subresjesgscIS_ftfAux.
HLT_AntiKt4EMTopoJets_subresjesgscIS_ftfAuxDyn.JetEtaJESScaleMomentum_eta
HLT_AntiKt4EMTopoJets_subresjesgscIS_ftfAuxDyn.JetEtaJESScaleMomentum_m
HLT_AntiKt4EMTopoJets_subresjesgscIS_ftfAuxDyn.JetEtaJESScaleMomentum_phi
HLT_AntiKt4EMTopoJets_subresjesgscIS_ftfAuxDyn.JetEtaJESScaleMomentum_pt
HLT_AntiKt4EMTopoJets_subresjesgscIS_ftfAuxDyn.JetGSCScaleMomentum_eta
HLT_AntiKt4EMTopoJets_subresjesgscIS_ftfAuxDyn.JetGSCScaleMomentum_m
HLT_AntiKt4EMTopoJets_subresjesgscIS_ftfAuxDyn.JetGSCScaleMomentum_phi
HLT_AntiKt4EMTopoJets_subresjesgscIS_ftfAuxDyn.JetGSCScaleMomentum_pt
HLT_AntiKt4EMTopoJets_subresjesgscIS_ftfAuxDyn.JetPileupScaleMomentum_eta
HLT_AntiKt4EMTopoJets_subresjesgscIS_ftfAuxDyn.JetPileupScaleMomentum_m
HLT_AntiKt4EMTopoJets_subresjesgscIS_ftfAuxDyn.JetPileupScaleMomentum_phi
HLT_AntiKt4EMTopoJets_subresjesgscIS_ftfAuxDyn.JetPileupScaleMomentum_pt
HLT_AntiKt4EMTopoJets_subresjesgscIS_ftfAuxDyn.Jvt
HLT_AntiKt4EMTopoJets_subresjesgscIS_ftfAuxDyn.JvtRpt
HLT_AntiKt4EMTopoJets_subresjesgscIS_ftfAuxDyn.Timing
HLT_AntiKt4EMTopoJets_subresjesgscIS_ftfAuxDyn.eta
HLT_AntiKt4EMTopoJets_subresjesgscIS_ftfAuxDyn.m
HLT_AntiKt4EMTopoJets_subresjesgscIS_ftfAuxDyn.phi
HLT_AntiKt4EMTopoJets_subresjesgscIS_ftfAuxDyn.pt
HLT_AntiKtVR30Rmax4Rmin02PV0TrackJets
HLT_AntiKtVR30Rmax4Rmin02PV0TrackJetsAux.
HLT_Bmumux
HLT_BmumuxAux.
HLT_Bmutrk
HLT_BmutrkAux.
HLT_Bmux
HLT_BmuxAux.
HLT_CBCombinedMuon_FSTrackParticles
HLT_CBCombinedMuon_FSTrackParticlesAux.
HLT_CBCombinedMuon_LRTTrackParticles
HLT_CBCombinedMuon_LRTTrackParticlesAux.
HLT_CBCombinedMuon_LRTTrackParticlesAuxDyn.viewIndex
HLT_CBCombinedMuon_RoITrackParticles
HLT_CBCombinedMuon_RoITrackParticlesAux.
HLT_CBCombinedMuon_RoITrackParticlesAuxDyn.viewIndex
HLT_DiElecPrecision
HLT_DiElecPrecisionAux.
HLT_DiElecPrecisionGSF
HLT_DiElecPrecisionGSFAux.
HLT_DimuEF
HLT_DimuEFAux.
HLT_DisTrkBDTSel
HLT_DisTrkBDTSelAux.
HLT_DisTrkBDTSelAuxDyn.disTrk_bdtscore
HLT_DisTrkBDTSelAuxDyn.disTrk_category
HLT_DisTrkBDTSelAuxDyn.disTrk_chi2
HLT_DisTrkBDTSelAuxDyn.disTrk_chi2ndof_pix
HLT_DisTrkBDTSelAuxDyn.disTrk_d0_wrtVtx
HLT_DisTrkBDTSelAuxDyn.disTrk_eta
HLT_DisTrkBDTSelAuxDyn.disTrk_is_fail
HLT_DisTrkBDTSelAuxDyn.disTrk_iso3_dr01
HLT_DisTrkBDTSelAuxDyn.disTrk_iso3_dr02
HLT_DisTrkBDTSelAuxDyn.disTrk_n_hits_innermost
HLT_DisTrkBDTSelAuxDyn.disTrk_n_hits_pix
HLT_DisTrkBDTSelAuxDyn.disTrk_n_hits_sct
HLT_DisTrkBDTSelAuxDyn.disTrk_ndof
HLT_DisTrkBDTSelAuxDyn.disTrk_phi
HLT_DisTrkBDTSelAuxDyn.disTrk_pt
HLT_DisTrkBDTSelAuxDyn.disTrk_refit_chi2
HLT_DisTrkBDTSelAuxDyn.disTrk_refit_d0_wrtVtx
HLT_DisTrkBDTSelAuxDyn.disTrk_refit_ndof
HLT_DisTrkBDTSelAuxDyn.disTrk_refit_pt
HLT_DisTrkBDTSelAuxDyn.disTrk_refit_z0_wrtVtx
HLT_DisTrkBDTSelAuxDyn.disTrk_z0_wrtVtx
HLT_DrellYan
HLT_DrellYanAux.
HLT_EMRoIs
HLT_FSLRT_TrackCount
HLT_FSLRT_TrackCountAux.
HLT_FSRoI
HLT_HPtdEdxTrk
HLT_HPtdEdxTrkAux.
HLT_HitDV
HLT_HitDVAux.
HLT_HitDVAuxDyn.hitDV_bdt_score
HLT_HitDVAuxDyn.hitDV_ly0_sp_frac
HLT_HitDVAuxDyn.hitDV_ly1_sp_frac
HLT_HitDVAuxDyn.hitDV_ly2_sp_frac
HLT_HitDVAuxDyn.hitDV_ly3_sp_frac
HLT_HitDVAuxDyn.hitDV_ly4_sp_frac
HLT_HitDVAuxDyn.hitDV_ly5_sp_frac
HLT_HitDVAuxDyn.hitDV_ly6_sp_frac
HLT_HitDVAuxDyn.hitDV_ly7_sp_frac
HLT_HitDVAuxDyn.hitDV_n_track_qual
HLT_HitDVAuxDyn.hitDV_seed_eta
HLT_HitDVAuxDyn.hitDV_seed_phi
HLT_HitDVAuxDyn.hitDV_seed_type
HLT_IDTrack_Bmumux_IDTrig
HLT_IDTrack_Bmumux_IDTrigAux.
HLT_IDTrack_Bmumux_IDTrigAuxDyn.viewIndex
HLT_IDTrack_MinBias_IDTrig
HLT_IDTrack_MinBias_IDTrigAux.
HLT_IDVertex_FS
HLT_IDVertex_FSAux.
HLT_JETRoI
HLT_METRoI
HLT_MET_cell
HLT_MET_cellAux.
HLT_MET_cvfpufit
HLT_MET_cvfpufitAux.
HLT_MET_mht
HLT_MET_mhtAux.
HLT_MET_mhtpufit_em
HLT_MET_mhtpufit_emAux.
HLT_MET_mhtpufit_pf
HLT_MET_mhtpufit_pfAux.
HLT_MET_nn
HLT_MET_nnAux.
HLT_MET_pfopufit
HLT_MET_pfopufitAux.
HLT_MET_pfsum
HLT_MET_pfsumAux.
HLT_MET_pfsum_cssk
HLT_MET_pfsum_csskAux.
HLT_MET_pfsum_vssk
HLT_MET_pfsum_vsskAux.
HLT_MET_tc
HLT_MET_tcAux.
HLT_MET_tc_em
HLT_MET_tc_emAux.
HLT_MET_tcpufit
HLT_MET_tcpufitAux.
HLT_MET_trkmht
HLT_MET_trkmhtAux.
HLT_MURoIs
HLT_MuRoICluster_Composites
HLT_MuRoICluster_CompositesAux.
HLT_MuonsCB_FS
HLT_MuonsCB_FSAux.
HLT_MuonsCB_LRT
HLT_MuonsCB_LRTAux.
HLT_MuonsCB_LRTAuxDyn.viewIndex
HLT_MuonsCB_RoI
HLT_MuonsCB_RoIAux.
HLT_MuonsCB_RoIAuxDyn.viewIndex
HLT_MuonsIso
HLT_MuonsIsoAux.
HLT_MuonsIsoAuxDyn.ptcone02
HLT_MuonsIsoAuxDyn.ptcone03
HLT_MuonsIsoAuxDyn.viewIndex
HLT_Muons_FS
HLT_Muons_FSAux.
HLT_Muons_FSAuxDyn.viewIndex
HLT_Muons_RoI
HLT_Muons_RoIAux.
HLT_Muons_RoIAuxDyn.viewIndex
HLT_NoMuonDiElecPrecision
HLT_NoMuonDiElecPrecisionAux.
HLT_NoMuonDiElecPrecisionGSF
HLT_NoMuonDiElecPrecisionGSFAux.
HLT_SpacePointCounts
HLT_SpacePointCountsAux.
HLT_TAURoI
HLT_TrackCount
HLT_TrackCountAux.
HLT_TrigTauRecMerged_LLP
HLT_TrigTauRecMerged_LLPAux.
HLT_TrigTauRecMerged_LLPAuxDyn.viewIndex
HLT_TrigTauRecMerged_LRT
HLT_TrigTauRecMerged_LRTAux.
HLT_TrigTauRecMerged_MVA
HLT_TrigTauRecMerged_MVAAux.
HLT_TrigTauRecMerged_MVAAuxDyn.viewIndex
HLT_cTAURoIs
HLT_eEMRoIs
HLT_eTAURoIs
HLT_egamma_Electrons
HLT_egamma_ElectronsAux.
HLT_egamma_ElectronsAuxDyn.cl_eta2
HLT_egamma_ElectronsAuxDyn.cl_phi2
HLT_egamma_ElectronsAuxDyn.deltaEta1PearDistortion
HLT_egamma_ElectronsAuxDyn.ptcone20
HLT_egamma_ElectronsAuxDyn.ptcone30
HLT_egamma_ElectronsAuxDyn.ptvarcone20
HLT_egamma_ElectronsAuxDyn.ptvarcone30
HLT_egamma_ElectronsAuxDyn.trk_d0
HLT_egamma_ElectronsAuxDyn.viewIndex
HLT_egamma_Electrons_GSF
HLT_egamma_Electrons_GSFAux.
HLT_egamma_Electrons_GSFAuxDyn.cl_eta2
HLT_egamma_Electrons_GSFAuxDyn.cl_phi2
HLT_egamma_Electrons_GSFAuxDyn.deltaEta1PearDistortion
HLT_egamma_Electrons_GSFAuxDyn.ptcone20
HLT_egamma_Electrons_GSFAuxDyn.ptcone30
HLT_egamma_Electrons_GSFAuxDyn.ptvarcone20
HLT_egamma_Electrons_GSFAuxDyn.ptvarcone30
HLT_egamma_Electrons_GSFAuxDyn.trk_d0
HLT_egamma_Electrons_GSFAuxDyn.viewIndex
HLT_egamma_Electrons_LRT
HLT_egamma_Electrons_LRTAux.
HLT_egamma_Electrons_LRTGSF
HLT_egamma_Electrons_LRTGSFAux.
HLT_egamma_Photons
HLT_egamma_PhotonsAux.
HLT_egamma_PhotonsAuxDyn.topoetcone20
HLT_egamma_PhotonsAuxDyn.topoetcone40
HLT_egamma_PhotonsAuxDyn.viewIndex
HLT_gJRoIs
HLT_gLJRoIs
HLT_jEMRoIs
HLT_jJRoIs
HLT_jLJRoIs
HLT_jTAURoIs
HLT_tautrack_LLP
HLT_tautrack_LLPAux.
HLT_tautrack_LLPAuxDyn.d0SigTJVA
HLT_tautrack_LLPAuxDyn.d0TJVA
HLT_tautrack_LLPAuxDyn.viewIndex
HLT_tautrack_LLPAuxDyn.z0sinthetaSigTJVA
HLT_tautrack_LLPAuxDyn.z0sinthetaTJVA
HLT_tautrack_LRT
HLT_tautrack_LRTAux.
HLT_tautrack_MVA
HLT_tautrack_MVAAux.
HLT_tautrack_MVAAuxDyn.d0SigTJVA
HLT_tautrack_MVAAuxDyn.d0TJVA
HLT_tautrack_MVAAuxDyn.viewIndex
HLT_tautrack_MVAAuxDyn.z0sinthetaSigTJVA
HLT_tautrack_MVAAuxDyn.z0sinthetaTJVA
HLT_vtx_z
HLT_vtx_zAux.
InDetDisappearingTrackParticles
InDetDisappearingTrackParticlesAux.
InDetDisappearingTrackParticlesAuxDyn.TRTdEdx
InDetDisappearingTrackParticlesAuxDyn.TRTdEdxUsedHits
InDetDisappearingTrackParticlesAuxDyn.eProbabilityNN
InDetDisappearingTrackParticlesAuxDyn.nBC_meas
InDetDisappearingTrackParticlesAuxDyn.trackLink
InDetDisappearingTrackParticlesAuxDyn.truthMatchProbability
InDetDisappearingTrackParticlesAuxDyn.truthOrigin
InDetDisappearingTrackParticlesAuxDyn.truthParticleLink
InDetDisappearingTrackParticlesAuxDyn.truthType
InDetForwardTrackParticles
InDetForwardTrackParticlesAux.
InDetForwardTrackParticlesAuxDyn.TRTdEdx
InDetForwardTrackParticlesAuxDyn.TRTdEdxUsedHits
InDetForwardTrackParticlesAuxDyn.eProbabilityNN
InDetForwardTrackParticlesAuxDyn.nBC_meas
InDetForwardTrackParticlesAuxDyn.trackLink
InDetForwardTrackParticlesAuxDyn.truthMatchProbability
InDetForwardTrackParticlesAuxDyn.truthOrigin
InDetForwardTrackParticlesAuxDyn.truthParticleLink
InDetForwardTrackParticlesAuxDyn.truthType
InDetLargeD0TrackParticles
InDetLargeD0TrackParticlesAux.
InDetLargeD0TrackParticlesAuxDyn.TRTdEdx
InDetLargeD0TrackParticlesAuxDyn.TRTdEdxUsedHits
InDetLargeD0TrackParticlesAuxDyn.eProbabilityNN
InDetLargeD0TrackParticlesAuxDyn.nBC_meas
InDetLargeD0TrackParticlesAuxDyn.trackLink
InDetLargeD0TrackParticlesAuxDyn.truthMatchProbability
InDetLargeD0TrackParticlesAuxDyn.truthOrigin
InDetLargeD0TrackParticlesAuxDyn.truthParticleLink
InDetLargeD0TrackParticlesAuxDyn.truthType
InDetTrackParticles
InDetTrackParticlesAssociatedClusters
InDetTrackParticlesAssociatedClustersAux.
InDetTrackParticlesAssociatedClustersAuxDyn.CellLink
InDetTrackParticlesAssociatedClusters_links
InDetTrackParticlesAux.
InDetTrackParticlesAuxDyn.TRTdEdx
InDetTrackParticlesAuxDyn.TRTdEdxUsedHits
InDetTrackParticlesAuxDyn.eProbabilityNN
InDetTrackParticlesAuxDyn.nBC_meas
InDetTrackParticlesAuxDyn.trackLink
InDetTrackParticlesAuxDyn.truthMatchProbability
InDetTrackParticlesAuxDyn.truthOrigin
InDetTrackParticlesAuxDyn.truthParticleLink
InDetTrackParticlesAuxDyn.truthType
InDetTrackParticlesClusterAssociations
InDetTrackParticlesClusterAssociationsAux.
IsCalibration
IsSimulation
IsTestBeam
JetETMissChargedParticleFlowObjects
JetETMissChargedParticleFlowObjectsAux.
JetETMissChargedParticleFlowObjectsAuxDyn.FE_ElectronLinks
JetETMissChargedParticleFlowObjectsAuxDyn.FE_MuonLinks
JetETMissChargedParticleFlowObjectsAuxDyn.FE_PhotonLinks
JetETMissChargedParticleFlowObjectsAuxDyn.FE_TauLinks
JetETMissChargedParticleFlowObjectsAuxDyn.IsInDenseEnvironment
JetETMissChargedParticleFlowObjectsAuxDyn.TracksExpectedEnergyDeposit
JetETMissLCNeutralParticleFlowObjects
JetETMissLCNeutralParticleFlowObjectsAux.
JetETMissLCNeutralParticleFlowObjectsAuxDyn.eta
JetETMissLCNeutralParticleFlowObjectsAuxDyn.m
JetETMissLCNeutralParticleFlowObjectsAuxDyn.phi
JetETMissLCNeutralParticleFlowObjectsAuxDyn.pt
JetETMissNeutralParticleFlowObjects
JetETMissNeutralParticleFlowObjectsAux.
JetETMissNeutralParticleFlowObjectsAuxDyn.AVG_LAR_Q
JetETMissNeutralParticleFlowObjectsAuxDyn.AVG_TILE_Q
JetETMissNeutralParticleFlowObjectsAuxDyn.BADLARQ_FRAC
JetETMissNeutralParticleFlowObjectsAuxDyn.CENTER_LAMBDA
JetETMissNeutralParticleFlowObjectsAuxDyn.CENTER_MAG
JetETMissNeutralParticleFlowObjectsAuxDyn.EM_PROBABILITY
JetETMissNeutralParticleFlowObjectsAuxDyn.ENG_BAD_CELLS
JetETMissNeutralParticleFlowObjectsAuxDyn.ENG_POS
JetETMissNeutralParticleFlowObjectsAuxDyn.FE_ElectronLinks
JetETMissNeutralParticleFlowObjectsAuxDyn.FE_MuonLinks
JetETMissNeutralParticleFlowObjectsAuxDyn.FE_PhotonLinks
JetETMissNeutralParticleFlowObjectsAuxDyn.FE_TauLinks
JetETMissNeutralParticleFlowObjectsAuxDyn.FE_efrac_matched_muon
JetETMissNeutralParticleFlowObjectsAuxDyn.FE_nMatchedMuons
JetETMissNeutralParticleFlowObjectsAuxDyn.ISOLATION
JetETMissNeutralParticleFlowObjectsAuxDyn.LAYERENERGY_EMB1
JetETMissNeutralParticleFlowObjectsAuxDyn.LAYERENERGY_EMB2
JetETMissNeutralParticleFlowObjectsAuxDyn.LAYERENERGY_EMB3
JetETMissNeutralParticleFlowObjectsAuxDyn.LAYERENERGY_EME1
JetETMissNeutralParticleFlowObjectsAuxDyn.LAYERENERGY_EME2
JetETMissNeutralParticleFlowObjectsAuxDyn.LAYERENERGY_EME3
JetETMissNeutralParticleFlowObjectsAuxDyn.LAYERENERGY_FCAL0
JetETMissNeutralParticleFlowObjectsAuxDyn.LAYERENERGY_FCAL1
JetETMissNeutralParticleFlowObjectsAuxDyn.LAYERENERGY_FCAL2
JetETMissNeutralParticleFlowObjectsAuxDyn.LAYERENERGY_HEC0
JetETMissNeutralParticleFlowObjectsAuxDyn.LAYERENERGY_HEC1
JetETMissNeutralParticleFlowObjectsAuxDyn.LAYERENERGY_HEC2
JetETMissNeutralParticleFlowObjectsAuxDyn.LAYERENERGY_HEC3
JetETMissNeutralParticleFlowObjectsAuxDyn.LAYERENERGY_MINIFCAL0
JetETMissNeutralParticleFlowObjectsAuxDyn.LAYERENERGY_MINIFCAL1
JetETMissNeutralParticleFlowObjectsAuxDyn.LAYERENERGY_MINIFCAL2
JetETMissNeutralParticleFlowObjectsAuxDyn.LAYERENERGY_MINIFCAL3
JetETMissNeutralParticleFlowObjectsAuxDyn.LAYERENERGY_PreSamplerB
JetETMissNeutralParticleFlowObjectsAuxDyn.LAYERENERGY_PreSamplerE
JetETMissNeutralParticleFlowObjectsAuxDyn.LAYERENERGY_TILE0
JetETMissNeutralParticleFlowObjectsAuxDyn.LAYERENERGY_TileBar0
JetETMissNeutralParticleFlowObjectsAuxDyn.LAYERENERGY_TileBar1
JetETMissNeutralParticleFlowObjectsAuxDyn.LAYERENERGY_TileBar2
JetETMissNeutralParticleFlowObjectsAuxDyn.LAYERENERGY_TileExt0
JetETMissNeutralParticleFlowObjectsAuxDyn.LAYERENERGY_TileExt1
JetETMissNeutralParticleFlowObjectsAuxDyn.LAYERENERGY_TileExt2
JetETMissNeutralParticleFlowObjectsAuxDyn.LAYERENERGY_TileGap1
JetETMissNeutralParticleFlowObjectsAuxDyn.LAYERENERGY_TileGap2
JetETMissNeutralParticleFlowObjectsAuxDyn.LAYERENERGY_TileGap3
JetETMissNeutralParticleFlowObjectsAuxDyn.N_BAD_CELLS
JetETMissNeutralParticleFlowObjectsAuxDyn.SECOND_LAMBDA
JetETMissNeutralParticleFlowObjectsAuxDyn.SECOND_R
JetETMissNeutralParticleFlowObjectsAuxDyn.TIMING
LArNoisyROSummary
LRTElectrons
LRTElectronsAux.
LRTElectronsAuxDyn.LHLoose
LRTElectronsAuxDyn.LHMedium
LRTElectronsAuxDyn.LHTight
LRTElectronsAuxDyn.LHValue
LRTElectronsAuxDyn.Loose
LRTElectronsAuxDyn.Medium
LRTElectronsAuxDyn.Tight
LRTElectronsAuxDyn.ambiguityType
LRTElectronsAuxDyn.asy1
LRTElectronsAuxDyn.barys1
LRTElectronsAuxDyn.deltaEta1PearDistortion
LRTElectronsAuxDyn.e1152
LRTElectronsAuxDyn.e132
LRTElectronsAuxDyn.e233
LRTElectronsAuxDyn.e235
LRTElectronsAuxDyn.e237
LRTElectronsAuxDyn.e255
LRTElectronsAuxDyn.e2ts1
LRTElectronsAuxDyn.e2tsts1
LRTElectronsAuxDyn.ecore
LRTElectronsAuxDyn.ehad1
LRTElectronsAuxDyn.emaxs1
LRTElectronsAuxDyn.emins1
LRTElectronsAuxDyn.ethad
LRTElectronsAuxDyn.ethad1
LRTElectronsAuxDyn.pos
LRTElectronsAuxDyn.pos7
LRTElectronsAuxDyn.poscs1
LRTElectronsAuxDyn.poscs2
LRTElectronsAuxDyn.r33over37allcalo
LRTElectronsAuxDyn.truthOrigin
LRTElectronsAuxDyn.truthParticleLink
LRTElectronsAuxDyn.truthType
LRTElectronsAuxDyn.widths1
LRTElectronsAuxDyn.widths2
LRTGSFTrackParticles
LRTGSFTrackParticlesAux.
LRTGSFTrackParticlesAuxDyn.QoverPLM
LRTGSFTrackParticlesAuxDyn.TRTdEdx
LRTGSFTrackParticlesAuxDyn.TRTdEdxUsedHits
LRTGSFTrackParticlesAuxDyn.eProbabilityNN
LRTGSFTrackParticlesAuxDyn.originalTrackParticle
LRTGSFTrackParticlesAuxDyn.parameterPX
LRTGSFTrackParticlesAuxDyn.parameterPY
LRTGSFTrackParticlesAuxDyn.parameterPZ
LRTGSFTrackParticlesAuxDyn.parameterPosition
LRTGSFTrackParticlesAuxDyn.parameterX
LRTGSFTrackParticlesAuxDyn.parameterY
LRTGSFTrackParticlesAuxDyn.parameterZ
LRTGSFTrackParticlesAuxDyn.trackLink
LRTGSFTrackParticlesAuxDyn.trackParameterCovarianceMatrices
LRTGSFTrackParticlesAuxDyn.truthMatchProbability
LRTGSFTrackParticlesAuxDyn.truthOrigin
LRTGSFTrackParticlesAuxDyn.truthParticleLink
LRTGSFTrackParticlesAuxDyn.truthType
LRTegammaClusters
LRTegammaClustersAux.
LRTegammaClustersAuxDyn.BadChannelList
LRTegammaClustersAuxDyn.CellLink
LRTegammaClustersAuxDyn.ETA1CALOFRAME
LRTegammaClustersAuxDyn.ETA2CALOFRAME
LRTegammaClustersAuxDyn.ETACALOFRAME
LRTegammaClustersAuxDyn.PHI1CALOFRAME
LRTegammaClustersAuxDyn.PHI2CALOFRAME
LRTegammaClustersAuxDyn.PHICALOFRAME
LRTegammaClustersAuxDyn.constituentClusterLinks
LRTegammaClustersAuxDyn.emax_sampl
LRTegammaClustersAuxDyn.eta_sampl
LRTegammaClustersAuxDyn.etamax_sampl
LRTegammaClustersAuxDyn.phi_sampl
LRTegammaClustersAuxDyn.phimax_sampl
LRTegammaClusters_links
LRTegammaTruthParticles
LRTegammaTruthParticlesAux.
LRTegammaTruthParticlesAuxDyn.recoElectronLink
LRTegammaTruthParticlesAuxDyn.recoPhotonLink
LRTegammaTruthParticlesAuxDyn.truthOrigin
LRTegammaTruthParticlesAuxDyn.truthParticleLink
LRTegammaTruthParticlesAuxDyn.truthType
LVL1EmTauRoIs
LVL1EmTauRoIsAux.
LVL1EnergySumRoI
LVL1EnergySumRoIAux.
LVL1JetEtRoI
LVL1JetEtRoIAux.
LVL1JetRoIs
LVL1JetRoIsAux.
LVL1MuonRoIs
LVL1MuonRoIsAux.
LVL1MuonRoIsAuxDyn.thresholdPatterns
LumiBlockN
MBTSContainer
MSDisplacedVertex
MSDisplacedVertexAux.
MSOnlyExtraPolatedMuonsLRTTrackParticles
MSOnlyExtraPolatedMuonsLRTTrackParticlesAux.
MSOnlyExtrapolatedMuonTrackParticles
MSOnlyExtrapolatedMuonTrackParticlesAux.
MSOnlyExtrapolatedMuonTrackParticlesAuxDyn.TRTdEdx
MSOnlyExtrapolatedMuonTrackParticlesAuxDyn.TRTdEdxUsedHits
MSOnlyExtrapolatedMuonTrackParticlesAuxDyn.alignEffectChId
MSOnlyExtrapolatedMuonTrackParticlesAuxDyn.alignEffectDeltaAngle
MSOnlyExtrapolatedMuonTrackParticlesAuxDyn.alignEffectDeltaTrans
MSOnlyExtrapolatedMuonTrackParticlesAuxDyn.alignEffectSigmaDeltaAngle
MSOnlyExtrapolatedMuonTrackParticlesAuxDyn.alignEffectSigmaDeltaTrans
MSOnlyExtrapolatedMuonTrackParticlesAuxDyn.deltaphi_0
MSOnlyExtrapolatedMuonTrackParticlesAuxDyn.deltaphi_1
MSOnlyExtrapolatedMuonTrackParticlesAuxDyn.deltatheta_0
MSOnlyExtrapolatedMuonTrackParticlesAuxDyn.deltatheta_1
MSOnlyExtrapolatedMuonTrackParticlesAuxDyn.eProbabilityNN
MSOnlyExtrapolatedMuonTrackParticlesAuxDyn.parameterPX
MSOnlyExtrapolatedMuonTrackParticlesAuxDyn.parameterPY
MSOnlyExtrapolatedMuonTrackParticlesAuxDyn.parameterPZ
MSOnlyExtrapolatedMuonTrackParticlesAuxDyn.parameterPosition
MSOnlyExtrapolatedMuonTrackParticlesAuxDyn.parameterX
MSOnlyExtrapolatedMuonTrackParticlesAuxDyn.parameterY
MSOnlyExtrapolatedMuonTrackParticlesAuxDyn.parameterZ
MSOnlyExtrapolatedMuonTrackParticlesAuxDyn.sigmadeltaphi_0
MSOnlyExtrapolatedMuonTrackParticlesAuxDyn.sigmadeltaphi_1
MSOnlyExtrapolatedMuonTrackParticlesAuxDyn.sigmadeltatheta_0
MSOnlyExtrapolatedMuonTrackParticlesAuxDyn.sigmadeltatheta_1
MSOnlyExtrapolatedMuonTrackParticlesAuxDyn.trackLink
MSOnlyExtrapolatedMuonTrackParticlesAuxDyn.trackParameterCovarianceMatrices
MSOnlyExtrapolatedMuonTrackParticlesAuxDyn.truthOrigin
MSOnlyExtrapolatedMuonTrackParticlesAuxDyn.truthParticleLink
MSOnlyExtrapolatedMuonTrackParticlesAuxDyn.truthType
MSonlyTracklets
MSonlyTrackletsAux.
McChannel
MuonClusterCollection
MuonClusterCollectionAux.
MuonClusterCollectionAuxDyn.CellLink
MuonClusterCollectionAuxDyn.constituentClusterLinks
MuonClusterCollectionAuxDyn.eta_sampl
MuonClusterCollectionAuxDyn.phi_sampl
MuonClusterCollection_links
MuonSegments
MuonSegmentsAux.
MuonSegmentsAuxDyn.N_MicromegaEtaHits
MuonSegmentsAuxDyn.N_MicromegaStereoHits
MuonSegmentsAuxDyn.N_StgcEtaHits
MuonSegmentsAuxDyn.N_StgcPhiHits
MuonSegmentsAuxDyn.clusterTime
MuonSegmentsAuxDyn.clusterTimeError
MuonSegmentsAuxDyn.clusterTimeValid
MuonSegmentsAuxDyn.muonSegment
MuonSegmentsAuxDyn.truthSegmentLink
MuonSpectrometerTrackParticles
MuonSpectrometerTrackParticlesAux.
MuonSpectrometerTrackParticlesAuxDyn.TRTdEdx
MuonSpectrometerTrackParticlesAuxDyn.TRTdEdxUsedHits
MuonSpectrometerTrackParticlesAuxDyn.eProbabilityNN
MuonSpectrometerTrackParticlesAuxDyn.parameterPX
MuonSpectrometerTrackParticlesAuxDyn.parameterPY
MuonSpectrometerTrackParticlesAuxDyn.parameterPZ
MuonSpectrometerTrackParticlesAuxDyn.parameterPosition
MuonSpectrometerTrackParticlesAuxDyn.parameterX
MuonSpectrometerTrackParticlesAuxDyn.parameterY
MuonSpectrometerTrackParticlesAuxDyn.parameterZ
MuonSpectrometerTrackParticlesAuxDyn.trackLink
MuonSpectrometerTrackParticlesAuxDyn.trackParameterCovarianceMatrices
MuonSpectrometerTrackParticlesAuxDyn.truthOrigin
MuonSpectrometerTrackParticlesAuxDyn.truthParticleLink
MuonSpectrometerTrackParticlesAuxDyn.truthType
MuonTruthParticles
MuonTruthParticlesAux.
MuonTruthParticlesAuxDyn.CaloEntryLayer_cov_extr
MuonTruthParticlesAuxDyn.CaloEntryLayer_is_extr
MuonTruthParticlesAuxDyn.CaloEntryLayer_is_matched
MuonTruthParticlesAuxDyn.CaloEntryLayer_px
MuonTruthParticlesAuxDyn.CaloEntryLayer_px_extr
MuonTruthParticlesAuxDyn.CaloEntryLayer_py
MuonTruthParticlesAuxDyn.CaloEntryLayer_py_extr
MuonTruthParticlesAuxDyn.CaloEntryLayer_pz
MuonTruthParticlesAuxDyn.CaloEntryLayer_pz_extr
MuonTruthParticlesAuxDyn.CaloEntryLayer_x
MuonTruthParticlesAuxDyn.CaloEntryLayer_x_extr
MuonTruthParticlesAuxDyn.CaloEntryLayer_y
MuonTruthParticlesAuxDyn.CaloEntryLayer_y_extr
MuonTruthParticlesAuxDyn.CaloEntryLayer_z
MuonTruthParticlesAuxDyn.CaloEntryLayer_z_extr
MuonTruthParticlesAuxDyn.MuonEntryLayer_cov_extr
MuonTruthParticlesAuxDyn.MuonEntryLayer_is_extr
MuonTruthParticlesAuxDyn.MuonEntryLayer_is_matched
MuonTruthParticlesAuxDyn.MuonEntryLayer_px
MuonTruthParticlesAuxDyn.MuonEntryLayer_px_extr
MuonTruthParticlesAuxDyn.MuonEntryLayer_py
MuonTruthParticlesAuxDyn.MuonEntryLayer_py_extr
MuonTruthParticlesAuxDyn.MuonEntryLayer_pz
MuonTruthParticlesAuxDyn.MuonEntryLayer_pz_extr
MuonTruthParticlesAuxDyn.MuonEntryLayer_x
MuonTruthParticlesAuxDyn.MuonEntryLayer_x_extr
MuonTruthParticlesAuxDyn.MuonEntryLayer_y
MuonTruthParticlesAuxDyn.MuonEntryLayer_y_extr
MuonTruthParticlesAuxDyn.MuonEntryLayer_z
MuonTruthParticlesAuxDyn.MuonEntryLayer_z_extr
MuonTruthParticlesAuxDyn.MuonExitLayer_cov_extr
MuonTruthParticlesAuxDyn.MuonExitLayer_is_extr
MuonTruthParticlesAuxDyn.MuonExitLayer_is_matched
MuonTruthParticlesAuxDyn.MuonExitLayer_px
MuonTruthParticlesAuxDyn.MuonExitLayer_px_extr
MuonTruthParticlesAuxDyn.MuonExitLayer_py
MuonTruthParticlesAuxDyn.MuonExitLayer_py_extr
MuonTruthParticlesAuxDyn.MuonExitLayer_pz
MuonTruthParticlesAuxDyn.MuonExitLayer_pz_extr
MuonTruthParticlesAuxDyn.MuonExitLayer_x
MuonTruthParticlesAuxDyn.MuonExitLayer_x_extr
MuonTruthParticlesAuxDyn.MuonExitLayer_y
MuonTruthParticlesAuxDyn.MuonExitLayer_y_extr
MuonTruthParticlesAuxDyn.MuonExitLayer_z
MuonTruthParticlesAuxDyn.MuonExitLayer_z_extr
MuonTruthParticlesAuxDyn.etaLayer1Hits
MuonTruthParticlesAuxDyn.etaLayer2Hits
MuonTruthParticlesAuxDyn.etaLayer3Hits
MuonTruthParticlesAuxDyn.etaLayer4Hits
MuonTruthParticlesAuxDyn.extendedLargeHits
MuonTruthParticlesAuxDyn.extendedSmallHits
MuonTruthParticlesAuxDyn.innerLargeHits
MuonTruthParticlesAuxDyn.innerSmallHits
MuonTruthParticlesAuxDyn.middleLargeHits
MuonTruthParticlesAuxDyn.middleSmallHits
MuonTruthParticlesAuxDyn.nphiLayers
MuonTruthParticlesAuxDyn.nprecLayers
MuonTruthParticlesAuxDyn.ntrigEtaLayers
MuonTruthParticlesAuxDyn.outerLargeHits
MuonTruthParticlesAuxDyn.outerSmallHits
MuonTruthParticlesAuxDyn.phiLayer1Hits
MuonTruthParticlesAuxDyn.phiLayer2Hits
MuonTruthParticlesAuxDyn.phiLayer3Hits
MuonTruthParticlesAuxDyn.phiLayer4Hits
MuonTruthParticlesAuxDyn.recoMuonLink
MuonTruthParticlesAuxDyn.recoMuonLinkLRT
MuonTruthParticlesAuxDyn.truthMMHits
MuonTruthParticlesAuxDyn.truthMdtHits
MuonTruthParticlesAuxDyn.truthOrigin
MuonTruthParticlesAuxDyn.truthRpcHits
MuonTruthParticlesAuxDyn.truthStgcHits
MuonTruthParticlesAuxDyn.truthTgcHits
MuonTruthParticlesAuxDyn.truthType
MuonTruthSegments
MuonTruthSegmentsAux.
MuonTruthSegmentsAuxDyn.recoSegmentLink
MuonTruthSegmentsAuxDyn.truthParticleLink
Muons
MuonsAux.
MuonsAuxDyn.CT_EL_Type
MuonsAuxDyn.CT_ET_FSRCandidateEnergy
MuonsAuxDyn.ClusterInfo_deltaR
MuonsAuxDyn.ET_Core
MuonsAuxDyn.ET_EMCore
MuonsAuxDyn.ET_HECCore
MuonsAuxDyn.ET_TileCore
MuonsAuxDyn.FSR_CandidateEnergy
MuonsAuxDyn.chargedFELinks
MuonsAuxDyn.combinedTrackOutBoundsPrecisionHits
MuonsAuxDyn.d0_staco
MuonsAuxDyn.extendedClosePrecisionHits
MuonsAuxDyn.extendedOutBoundsPrecisionHits
MuonsAuxDyn.innerClosePrecisionHits
MuonsAuxDyn.innerOutBoundsPrecisionHits
MuonsAuxDyn.isEndcapGoodLayers
MuonsAuxDyn.isSmallGoodSectors
MuonsAuxDyn.middleClosePrecisionHits
MuonsAuxDyn.middleOutBoundsPrecisionHits
MuonsAuxDyn.muon_efrac_matched_FE
MuonsAuxDyn.nUnspoiledCscHits
MuonsAuxDyn.neflowisol20
MuonsAuxDyn.neflowisol30
MuonsAuxDyn.neflowisol40
MuonsAuxDyn.neflowisolCorrBitset
MuonsAuxDyn.neflowisolcoreConeEnergyCorrection
MuonsAuxDyn.neutralFELinks
MuonsAuxDyn.nphiMatchedHitsPerChamberLayer
MuonsAuxDyn.nprecMatchedHitsPerChamberLayer
MuonsAuxDyn.ntrigEtaMatchedHitsPerChamberLayer
MuonsAuxDyn.numEnergyLossPerTrack
MuonsAuxDyn.numberOfGoodPrecisionLayers
MuonsAuxDyn.outerClosePrecisionHits
MuonsAuxDyn.outerOutBoundsPrecisionHits
MuonsAuxDyn.phi0_staco
MuonsAuxDyn.ptcone20
MuonsAuxDyn.ptcone30
MuonsAuxDyn.ptcone40
MuonsAuxDyn.ptconeCorrBitset
MuonsAuxDyn.ptconecoreTrackPtrCorrection
MuonsAuxDyn.ptvarcone20
MuonsAuxDyn.ptvarcone30
MuonsAuxDyn.ptvarcone40
MuonsAuxDyn.qOverPErr_staco
MuonsAuxDyn.qOverP_staco
MuonsAuxDyn.theta_staco
MuonsAuxDyn.topoetcone20
MuonsAuxDyn.topoetcone30
MuonsAuxDyn.topoetcone40
MuonsAuxDyn.topoetconeCorrBitset
MuonsAuxDyn.topoetconecoreConeEnergyCorrection
MuonsAuxDyn.truthOrigin
MuonsAuxDyn.truthParticleLink
MuonsAuxDyn.truthType
MuonsAuxDyn.z0_staco
MuonsLRT
MuonsLRTAux.
NeutralParticleFlowIsoCentralEventShape
NeutralParticleFlowIsoCentralEventShapeAux.
NeutralParticleFlowIsoCentralEventShapeAuxDyn.Density
NeutralParticleFlowIsoForwardEventShape
NeutralParticleFlowIsoForwardEventShapeAux.
NeutralParticleFlowIsoForwardEventShapeAuxDyn.Density
Photons
PhotonsAux.
PhotonsAuxDyn.Loose
PhotonsAuxDyn.Tight
PhotonsAuxDyn.ambiguityLink
PhotonsAuxDyn.ambiguityType
PhotonsAuxDyn.asy1
PhotonsAuxDyn.barys1
PhotonsAuxDyn.chargedFELinks
PhotonsAuxDyn.core57cellsEnergyCorrection
PhotonsAuxDyn.e1152
PhotonsAuxDyn.e132
PhotonsAuxDyn.e233
PhotonsAuxDyn.e235
PhotonsAuxDyn.e237
PhotonsAuxDyn.e255
PhotonsAuxDyn.e2ts1
PhotonsAuxDyn.e2tsts1
PhotonsAuxDyn.ecore
PhotonsAuxDyn.ehad1
PhotonsAuxDyn.emaxs1
PhotonsAuxDyn.emins1
PhotonsAuxDyn.ethad
PhotonsAuxDyn.ethad1
PhotonsAuxDyn.neutralFELinks
PhotonsAuxDyn.pos
PhotonsAuxDyn.pos7
PhotonsAuxDyn.poscs1
PhotonsAuxDyn.poscs2
PhotonsAuxDyn.ptcone20
PhotonsAuxDyn.ptcone30
PhotonsAuxDyn.r33over37allcalo
PhotonsAuxDyn.topoetcone20
PhotonsAuxDyn.topoetcone20ptCorrection
PhotonsAuxDyn.topoetcone30
PhotonsAuxDyn.topoetcone30ptCorrection
PhotonsAuxDyn.topoetcone40
PhotonsAuxDyn.topoetcone40ptCorrection
PhotonsAuxDyn.truthOrigin
PhotonsAuxDyn.truthParticleLink
PhotonsAuxDyn.truthType
PhotonsAuxDyn.widths1
PhotonsAuxDyn.widths2
PrimaryVertices
PrimaryVerticesAux.
PrimaryVerticesAuxDyn.sumPt2
RunNumber
SlowMuons
SlowMuonsAux.
StauSegments
StauSegmentsAux.
Staus
StausAux.
StreamAOD
SuspectLumiBlocks
SuspectLumiBlocksAux.
TauFinalPi0s
TauFinalPi0sAux.
TauFinalPi0sAuxDyn.pi0PFOLinks
TauHadronicParticleFlowObjects
TauHadronicParticleFlowObjectsAux.
TauJets
TauJetsAux.
TauJetsAuxDyn.ClusterTotalEnergy
TauJetsAuxDyn.ClustersMeanCenterLambda
TauJetsAuxDyn.ClustersMeanEMProbability
TauJetsAuxDyn.ClustersMeanFirstEngDens
TauJetsAuxDyn.ClustersMeanPresamplerFrac
TauJetsAuxDyn.ClustersMeanSecondLambda
TauJetsAuxDyn.EMFRACTIONATEMSCALE_MOVEE3
TauJetsAuxDyn.EMFracFixed
TauJetsAuxDyn.GhostMuonSegmentCount
TauJetsAuxDyn.LeadClusterFrac
TauJetsAuxDyn.NNDecayMode
TauJetsAuxDyn.NNDecayModeProb_1p0n
TauJetsAuxDyn.NNDecayModeProb_1p1n
TauJetsAuxDyn.NNDecayModeProb_1pXn
TauJetsAuxDyn.NNDecayModeProb_3p0n
TauJetsAuxDyn.NNDecayModeProb_3pXn
TauJetsAuxDyn.PFOEngRelDiff
TauJetsAuxDyn.PanTau_DecayModeExtended
TauJetsAuxDyn.TAU_SEEDTRK_SECMAXSTRIPETOVERPT
TauJetsAuxDyn.UpsilonCluster
TauJetsAuxDyn.chargedFELinks
TauJetsAuxDyn.etHotShotDR1
TauJetsAuxDyn.etHotShotDR1OverPtLeadTrk
TauJetsAuxDyn.etHotShotWin
TauJetsAuxDyn.etHotShotWinOverPtLeadTrk
TauJetsAuxDyn.etaCombined
TauJetsAuxDyn.hadLeakFracFixed
TauJetsAuxDyn.mCombined
TauJetsAuxDyn.nConversionTracks
TauJetsAuxDyn.nFakeTracks
TauJetsAuxDyn.nModifiedIsolationTracks
TauJetsAuxDyn.neutralFELinks
TauJetsAuxDyn.phiCombined
TauJetsAuxDyn.ptCombined
TauJetsAuxDyn.ptIntermediateAxisEM
TauJetsAuxDyn.rho
TauNeutralParticleFlowObjects
TauNeutralParticleFlowObjectsAux.
TauNeutralParticleFlowObjectsAuxDyn.cellBased_CENTER_LAMBDA
TauNeutralParticleFlowObjectsAuxDyn.cellBased_DELTA_PHI
TauNeutralParticleFlowObjectsAuxDyn.cellBased_DELTA_THETA
TauNeutralParticleFlowObjectsAuxDyn.cellBased_EM1CoreFrac
TauNeutralParticleFlowObjectsAuxDyn.cellBased_ENG_FRAC_CORE
TauNeutralParticleFlowObjectsAuxDyn.cellBased_ENG_FRAC_EM
TauNeutralParticleFlowObjectsAuxDyn.cellBased_ENG_FRAC_MAX
TauNeutralParticleFlowObjectsAuxDyn.cellBased_FIRST_ETA
TauNeutralParticleFlowObjectsAuxDyn.cellBased_LATERAL
TauNeutralParticleFlowObjectsAuxDyn.cellBased_LONGITUDINAL
TauNeutralParticleFlowObjectsAuxDyn.cellBased_NHitsInEM1
TauNeutralParticleFlowObjectsAuxDyn.cellBased_NPosECells_EM1
TauNeutralParticleFlowObjectsAuxDyn.cellBased_NPosECells_EM2
TauNeutralParticleFlowObjectsAuxDyn.cellBased_NPosECells_PS
TauNeutralParticleFlowObjectsAuxDyn.cellBased_SECOND_ENG_DENS
TauNeutralParticleFlowObjectsAuxDyn.cellBased_SECOND_LAMBDA
TauNeutralParticleFlowObjectsAuxDyn.cellBased_SECOND_R
TauNeutralParticleFlowObjectsAuxDyn.cellBased_energy_EM1
TauNeutralParticleFlowObjectsAuxDyn.cellBased_energy_EM2
TauNeutralParticleFlowObjectsAuxDyn.cellBased_firstEtaWRTClusterPosition_EM1
TauNeutralParticleFlowObjectsAuxDyn.cellBased_firstEtaWRTClusterPosition_EM2
TauNeutralParticleFlowObjectsAuxDyn.cellBased_secondEtaWRTClusterPosition_EM1
TauNeutralParticleFlowObjectsAuxDyn.cellBased_secondEtaWRTClusterPosition_EM2
TauNeutralParticleFlowObjectsAuxDyn.nPi0Proto
TauPi0Clusters
TauPi0ClustersAux.
TauPi0ClustersAuxDyn.BadChannelList
TauPi0ClustersAuxDyn.CENTER_LAMBDA
TauPi0ClustersAuxDyn.CENTER_MAG
TauPi0ClustersAuxDyn.CENTER_X
TauPi0ClustersAuxDyn.CENTER_Y
TauPi0ClustersAuxDyn.CENTER_Z
TauPi0ClustersAuxDyn.CellLink
TauPi0ClustersAuxDyn.DELTA_ALPHA
TauPi0ClustersAuxDyn.DELTA_PHI
TauPi0ClustersAuxDyn.DELTA_THETA
TauPi0ClustersAuxDyn.DM_WEIGHT
TauPi0ClustersAuxDyn.EM_PROBABILITY
TauPi0ClustersAuxDyn.ENG_FRAC_CORE
TauPi0ClustersAuxDyn.ENG_FRAC_EM
TauPi0ClustersAuxDyn.ENG_FRAC_MAX
TauPi0ClustersAuxDyn.FIRST_ENG_DENS
TauPi0ClustersAuxDyn.FIRST_ETA
TauPi0ClustersAuxDyn.FIRST_PHI
TauPi0ClustersAuxDyn.HAD_WEIGHT
TauPi0ClustersAuxDyn.ISOLATION
TauPi0ClustersAuxDyn.LATERAL
TauPi0ClustersAuxDyn.LONGITUDINAL
TauPi0ClustersAuxDyn.OOC_WEIGHT
TauPi0ClustersAuxDyn.SECOND_ENG_DENS
TauPi0ClustersAuxDyn.SECOND_LAMBDA
TauPi0ClustersAuxDyn.SECOND_R
TauPi0ClustersAuxDyn.emax_sampl
TauPi0ClustersAuxDyn.eta_sampl
TauPi0ClustersAuxDyn.etamax_sampl
TauPi0ClustersAuxDyn.phi_sampl
TauPi0ClustersAuxDyn.phimax_sampl
TauPi0Clusters_links
TauSecondaryVertices
TauSecondaryVerticesAux.
TauShotClusters
TauShotClustersAux.
TauShotClustersAuxDyn.CellLink
TauShotClustersAuxDyn.emax_sampl
TauShotClustersAuxDyn.eta_sampl
TauShotClustersAuxDyn.etamax_sampl
TauShotClustersAuxDyn.phi_sampl
TauShotClustersAuxDyn.phimax_sampl
TauShotClusters_links
TauShotParticleFlowObjects
TauShotParticleFlowObjectsAux.
TauShotParticleFlowObjectsAuxDyn.tauShots_nCellsInEta
TauShotParticleFlowObjectsAuxDyn.tauShots_nPhotons
TauShotParticleFlowObjectsAuxDyn.tauShots_pt1
TauShotParticleFlowObjectsAuxDyn.tauShots_pt3
TauShotParticleFlowObjectsAuxDyn.tauShots_pt5
TauShotParticleFlowObjectsAuxDyn.tauShots_seedHash
TauTracks
TauTracksAux.
TauTracksAuxDyn.CaloSamplingEtaEM
TauTracksAuxDyn.CaloSamplingEtaHad
TauTracksAuxDyn.CaloSamplingPhiEM
TauTracksAuxDyn.CaloSamplingPhiHad
TauTracksAuxDyn.d0SigTJVA
TauTracksAuxDyn.d0TJVA
TauTracksAuxDyn.rnn_chargedScore
TauTracksAuxDyn.rnn_conversionScore
TauTracksAuxDyn.rnn_fakeScore
TauTracksAuxDyn.rnn_isolationScore
TauTracksAuxDyn.z0sinthetaSigTJVA
TauTracksAuxDyn.z0sinthetaTJVA
TileMuObj
Token
TopoClusterIsoCentralEventShape
TopoClusterIsoCentralEventShapeAux.
TopoClusterIsoCentralEventShapeAuxDyn.Density
TopoClusterIsoForwardEventShape
TopoClusterIsoForwardEventShapeAux.
TopoClusterIsoForwardEventShapeAuxDyn.Density
TrigConfKeys
TrigConfKeysOnline
TriggerMenuJson_BG
TriggerMenuJson_BGAux.
TriggerMenuJson_HLT
TriggerMenuJson_HLTAux.
TriggerMenuJson_HLTMonitoring
TriggerMenuJson_HLTMonitoringAux.
TriggerMenuJson_HLTPS
TriggerMenuJson_HLTPSAux.
TriggerMenuJson_L1
TriggerMenuJson_L1Aux.
TriggerMenuJson_L1PS
TriggerMenuJson_L1PSAux.
TruthEvents
TruthEventsAux.
TruthEventsAuxDyn.PDFID1
TruthEventsAuxDyn.PDFID2
TruthEventsAuxDyn.PDGID1
TruthEventsAuxDyn.PDGID2
TruthEventsAuxDyn.Q
TruthEventsAuxDyn.X1
TruthEventsAuxDyn.X2
TruthEventsAuxDyn.XF1
TruthEventsAuxDyn.XF2
TruthMetaData
TruthMetaDataAux.
TruthParticles
TruthParticlesAux.
TruthParticlesAuxDyn.polarizationPhi
TruthParticlesAuxDyn.polarizationTheta
TruthPileupParticles
TruthPileupParticlesAux.
TruthVertices
TruthVerticesAux.
UnAssocMuonSegments
UnAssocMuonSegmentsAux.
UnAssocMuonSegmentsAuxDyn.N_MicromegaEtaHits
UnAssocMuonSegmentsAuxDyn.N_MicromegaStereoHits
UnAssocMuonSegmentsAuxDyn.N_StgcEtaHits
UnAssocMuonSegmentsAuxDyn.N_StgcPhiHits
UnAssocMuonSegmentsAuxDyn.clusterTime
UnAssocMuonSegmentsAuxDyn.clusterTimeError
UnAssocMuonSegmentsAuxDyn.clusterTimeValid
UnAssocMuonSegmentsAuxDyn.muonSegment
_Digitization_Parameters
_Generation_Parameters
_Simulation_Parameters
_TagInfo
eElesPerf
eElesPerfAux.
egammaClusters
egammaClustersAux.
egammaClustersAuxDyn.BadChannelList
egammaClustersAuxDyn.CellLink
egammaClustersAuxDyn.ETA1CALOFRAME
egammaClustersAuxDyn.ETA2CALOFRAME
egammaClustersAuxDyn.ETACALOFRAME
egammaClustersAuxDyn.PHI1CALOFRAME
egammaClustersAuxDyn.PHI2CALOFRAME
egammaClustersAuxDyn.PHICALOFRAME
egammaClustersAuxDyn.constituentClusterLinks
egammaClustersAuxDyn.emax_sampl
egammaClustersAuxDyn.eta_sampl
egammaClustersAuxDyn.etamax_sampl
egammaClustersAuxDyn.phi_sampl
egammaClustersAuxDyn.phimax_sampl
egammaClusters_links
egammaTruthParticles
egammaTruthParticlesAux.
egammaTruthParticlesAuxDyn.recoElectronLink
egammaTruthParticlesAuxDyn.recoPhotonLink
egammaTruthParticlesAuxDyn.truthOrigin
egammaTruthParticlesAuxDyn.truthParticleLink
egammaTruthParticlesAuxDyn.truthType
index_ref
xAODNSWSegments
xAODNSWSegmentsAux.
xAODNSWSegmentsAuxDyn.N_MicromegaEtaHits
xAODNSWSegmentsAuxDyn.N_MicromegaStereoHits
xAODNSWSegmentsAuxDyn.N_StgcEtaHits
xAODNSWSegmentsAuxDyn.N_StgcPhiHits
xAODNSWSegmentsAuxDyn.clusterTime
xAODNSWSegmentsAuxDyn.clusterTimeError
xAODNSWSegmentsAuxDyn.clusterTimeValid
xAODNSWSegmentsAuxDyn.muonSegment
xTrigDecision
xTrigDecisionAux.
